<?xml version="1.0" standalone="no"?>
<!DOCTYPE svg PUBLIC "-//W3C//DTD SVG 20010904//EN"
 "http://www.w3.org/TR/2001/REC-SVG-20010904/DTD/svg10.dtd">
<svg version="1.0" xmlns="http://www.w3.org/2000/svg"
 width="1900.000000pt" height="1064.000000pt" viewBox="0 0 1900.000000 1064.000000"
 preserveAspectRatio="xMidYMid meet">
<metadata>
Created by potrace 1.15, written by Peter Selinger 2001-2017
</metadata>
<g transform="translate(0.000000,1064.000000) scale(0.100000,-0.100000)"
fill="#000000" stroke="none">
<path d="M3 10613 c2 -21 8 -29 25 -31 13 -2 28 -12 35 -23 6 -10 17 -19 23
-19 6 0 17 -7 24 -15 9 -10 9 -15 1 -15 -6 0 -11 5 -11 11 0 5 -5 7 -10 4 -14
-9 7 -35 27 -35 8 0 11 -5 7 -11 -4 -7 -1 -10 7 -7 8 3 19 -1 26 -8 19 -18 16
-26 -7 -19 -11 4 -20 2 -20 -4 0 -6 6 -11 13 -11 10 0 14 -13 13 -40 0 -22 -4
-40 -9 -40 -4 0 -5 -4 -2 -10 3 -5 0 -10 -7 -10 -10 0 -10 -2 0 -8 9 -7 8 -14
-8 -32 -11 -13 -20 -31 -20 -41 0 -15 -6 -17 -37 -13 -29 4 -34 3 -23 -5 12
-9 11 -11 -10 -11 -19 0 -21 -3 -12 -12 20 -20 13 -32 -8 -13 -20 18 -20 17
-20 -258 l0 -276 28 9 c16 4 41 19 55 34 14 14 33 26 42 26 8 0 15 6 15 14 0
9 12 16 28 18 19 2 27 8 26 21 -1 9 2 17 7 17 5 0 9 -7 9 -15 0 -8 9 -15 19
-15 10 0 21 -7 25 -15 3 -9 12 -12 23 -9 15 5 16 4 3 -5 -12 -9 -12 -13 -2
-19 7 -5 12 -13 11 -18 -4 -21 2 -28 11 -14 8 11 9 6 5 -17 -5 -28 -2 -33 15
-33 12 0 18 -4 15 -10 -3 -5 1 -10 9 -10 9 0 16 -5 16 -11 0 -6 7 -9 16 -7 9
2 36 -16 61 -39 25 -24 52 -43 60 -43 8 0 12 -4 8 -9 -3 -5 -1 -12 5 -16 5 -3
10 -1 10 6 0 7 11 2 24 -11 14 -12 32 -20 40 -17 11 5 14 0 11 -21 -7 -50 -23
-90 -44 -111 -12 -12 -21 -30 -21 -42 0 -14 -5 -19 -13 -16 -8 3 -14 -1 -15
-9 -1 -8 -3 -21 -4 -29 -1 -8 -5 -12 -9 -10 -6 5 -23 -25 -17 -30 2 -1 12 -8
23 -14 19 -12 19 -12 -2 -8 -13 3 -23 2 -23 -3 0 -19 157 -21 168 -2 4 5 24
13 45 17 20 4 40 11 43 16 3 5 10 7 15 4 5 -4 17 -1 26 5 15 10 15 11 1 6 -25
-7 -29 4 -8 26 22 24 16 46 -15 54 -18 4 -23 12 -22 32 2 22 -2 26 -19 24 -13
-2 -24 4 -28 14 -8 21 2 33 13 15 12 -19 20 -1 15 37 -2 22 1 35 11 38 8 4 15
13 15 21 0 12 3 13 14 4 9 -7 15 -8 18 -2 4 13 58 22 58 10 0 -16 72 -3 82 15
5 9 14 16 19 16 13 0 39 26 39 39 0 5 10 11 23 13 12 2 21 9 19 17 -2 9 4 12
18 8 11 -3 20 -1 20 5 0 6 6 8 14 5 8 -3 21 2 30 12 12 13 27 16 58 14 24 -2
45 -8 46 -13 2 -6 8 -8 13 -4 5 3 9 1 9 -4 0 -10 53 -22 98 -23 12 -1 22 -5
22 -10 0 -5 11 -9 24 -9 13 0 26 -7 30 -15 3 -8 12 -12 21 -9 8 3 15 1 15 -5
0 -6 3 -10 8 -9 6 1 32 -4 84 -18 21 -6 98 -78 98 -93 0 -5 7 -8 15 -5 8 4 15
1 15 -5 0 -7 14 -25 30 -41 17 -16 30 -34 30 -39 0 -6 15 -27 34 -46 27 -27
34 -41 30 -62 -3 -15 -2 -24 2 -20 9 9 33 -23 34 -45 0 -23 39 -88 53 -88 7 0
7 -4 -2 -9 -15 -10 -7 -31 12 -31 7 0 6 4 -3 10 -8 5 -10 10 -4 10 6 0 23 -11
38 -25 14 -13 26 -21 26 -17 0 4 5 0 10 -8 6 -9 10 -11 10 -3 0 7 7 10 16 6
13 -5 13 -7 2 -14 -10 -7 -10 -9 0 -9 6 0 12 -7 12 -16 0 -8 4 -12 10 -9 5 3
3 -11 -6 -30 -8 -20 -12 -45 -9 -56 4 -12 1 -21 -9 -25 -11 -4 -12 -11 -4 -35
5 -16 16 -29 24 -29 8 0 14 -5 14 -11 0 -6 -7 -9 -15 -5 -8 3 -15 1 -15 -4 0
-6 8 -10 17 -10 15 0 15 -1 -2 -14 -12 -9 -16 -19 -11 -32 6 -16 9 -16 17 -4
8 11 9 8 3 -10 -9 -34 -13 -37 -25 -20 -8 11 -9 10 -4 -7 4 -14 2 -23 -5 -23
-6 0 -8 -5 -4 -11 3 -6 15 -9 25 -6 11 3 19 1 19 -4 0 -9 -14 -13 -37 -10 -7
1 -13 -3 -13 -9 0 -5 7 -10 15 -10 8 0 15 -4 15 -10 0 -5 7 -10 15 -10 9 0 12
6 8 18 -4 11 1 8 16 -8 15 -17 24 -21 27 -12 3 6 12 12 20 12 8 0 14 -6 14
-12 0 -9 3 -10 8 -2 4 6 33 10 67 9 50 -2 59 -5 57 -19 -2 -9 1 -16 5 -15 28
5 42 -4 46 -28 4 -27 4 -27 12 -5 8 23 27 31 24 10 -4 -37 2 -47 29 -45 17 1
26 -3 24 -10 -1 -7 2 -13 8 -13 5 0 10 4 10 9 0 11 39 9 58 -3 7 -4 12 -2 12
4 0 6 4 8 10 5 5 -3 18 -1 29 5 13 7 22 7 26 0 3 -5 11 -10 16 -10 6 0 7 5 4
10 -3 6 1 10 10 10 9 0 14 -4 11 -9 -3 -5 3 -11 14 -14 11 -3 20 -1 20 3 0 5
16 6 36 3 25 -4 39 -2 45 8 5 8 9 9 9 3 0 -7 19 -12 45 -12 25 -1 45 3 45 8 0
6 11 10 25 10 14 0 25 4 25 9 0 16 33 5 40 -13 5 -15 8 -15 17 -4 5 7 13 25
16 39 5 20 19 31 59 48 28 12 59 28 67 35 9 8 30 28 48 44 31 29 48 39 67 40
5 0 12 6 16 12 18 30 112 50 224 49 61 -1 105 -3 99 -6 -7 -3 -13 -11 -13 -18
0 -7 -6 -16 -13 -18 -7 -3 -5 -6 6 -6 9 -1 17 -8 17 -16 0 -9 -6 -12 -16 -8
-10 4 -15 1 -14 -8 5 -31 -1 -49 -15 -49 -9 0 -12 -6 -9 -15 4 -8 1 -15 -6
-15 -6 0 -9 -4 -5 -9 7 -12 -22 -20 -63 -17 -19 2 -39 -2 -45 -8 -7 -6 -51
-30 -100 -53 -82 -40 -154 -87 -222 -147 -16 -14 -33 -26 -37 -26 -5 0 -8 -5
-8 -11 0 -11 -40 -67 -77 -107 -12 -13 -25 -34 -29 -46 -4 -11 -10 -23 -13
-26 -34 -26 -187 -329 -226 -445 -14 -44 -34 -122 -44 -172 -21 -109 -28 -353
-11 -397 9 -24 8 -27 -3 -18 -8 7 -18 8 -22 4 -5 -4 -5 -2 -2 4 3 6 0 21 -7
35 -7 13 -11 30 -8 37 2 6 2 12 0 12 -2 0 -18 4 -36 9 -20 6 -30 6 -27 0 4 -5
2 -9 -3 -9 -6 0 -12 7 -16 15 -6 17 -52 20 -62 4 -4 -8 -9 -7 -15 2 -14 22
-11 27 14 22 19 -4 20 -3 5 7 -10 6 -18 22 -18 35 0 13 -4 34 -9 47 -6 17 -5
29 5 43 8 10 14 24 14 29 0 6 -5 4 -10 -4 -8 -12 -10 -9 -10 13 0 20 5 27 20
27 11 0 20 7 20 15 0 8 -6 15 -12 15 -9 0 -9 3 -2 8 5 4 11 40 12 80 0 39 4
77 7 82 10 16 -16 89 -30 84 -7 -3 -13 -15 -13 -27 -2 -67 -5 -77 -23 -77 -11
0 -18 -3 -18 -7 3 -20 -2 -34 -11 -28 -5 3 -10 1 -10 -6 0 -8 -4 -8 -15 1 -12
10 -16 9 -22 -6 -6 -18 -49 -64 -58 -64 -2 0 -2 7 2 16 5 14 3 15 -18 4 -13
-7 -28 -19 -32 -26 -5 -9 -23 -13 -45 -12 -35 1 -35 1 -6 5 l31 4 -26 28 c-44
46 -60 70 -67 96 -3 14 -13 25 -21 25 -8 0 -22 7 -31 16 -11 12 -17 13 -20 5
-3 -9 -10 -7 -25 6 -11 10 -17 13 -14 6 7 -11 -36 -53 -55 -53 -6 0 -22 -8
-36 -19 -15 -10 -44 -21 -65 -25 -31 -6 -36 -10 -27 -21 9 -11 6 -14 -17 -17
-28 -3 -61 8 -76 27 -5 6 -7 3 -3 -7 7 -22 7 -22 -32 -2 -19 9 -41 13 -53 9
-19 -6 -21 -4 -15 11 5 14 4 16 -4 8 -9 -9 -9 -17 -1 -32 14 -26 14 -35 0 -26
-6 3 -15 0 -20 -7 -6 -10 -9 -11 -9 -1 0 20 -18 14 -25 -9 -6 -17 -9 -19 -16
-8 -6 9 -12 10 -16 4 -15 -20 -65 -46 -78 -41 -8 3 -17 1 -20 -5 -4 -5 -10 -7
-14 -5 -4 3 -25 -12 -47 -32 -21 -20 -42 -35 -46 -34 -5 1 -8 -4 -8 -12 0 -8
-11 -17 -25 -20 -14 -4 -25 -11 -25 -17 0 -6 -9 -8 -20 -4 -14 4 -20 2 -18 -7
2 -7 -3 -12 -11 -10 -7 1 -19 -3 -27 -9 -8 -6 -14 -7 -14 -2 0 6 -11 8 -25 5
-14 -2 -32 1 -40 8 -11 9 -19 10 -26 3 -7 -7 -24 -7 -47 -2 -22 5 -41 4 -48
-2 -8 -6 -14 -5 -17 6 -5 11 -12 13 -32 5 -21 -8 -25 -7 -25 8 0 13 -2 14 -9
3 -5 -8 -11 -9 -15 -3 -4 6 -15 9 -26 7 -11 -2 -20 0 -20 6 0 5 -10 9 -22 9
-18 0 -20 2 -8 9 8 6 17 8 21 5 4 -2 10 0 14 6 6 9 -21 14 -77 13 -10 0 -18 8
-18 16 0 22 -31 39 -55 31 -11 -4 -25 -2 -32 4 -33 29 -43 36 -67 42 -14 3
-26 11 -26 18 0 6 -11 16 -25 22 -19 9 -28 9 -44 -2 -14 -10 -20 -11 -23 -2
-4 12 -165 16 -246 5 -25 -3 -42 -2 -42 4 0 6 -9 7 -21 4 -16 -5 -19 -4 -14 6
6 9 3 11 -9 6 -10 -4 -20 -7 -22 -7 -2 0 -4 -835 -4 -1855 0 -1230 3 -1855 10
-1855 6 0 10 6 10 13 0 8 4 7 10 -3 5 -8 10 -10 10 -5 0 12 130 15 130 4 0 -7
69 -24 82 -21 5 1 8 -2 8 -8 0 -5 9 -10 20 -10 20 0 140 -110 140 -129 0 -6 5
-11 10 -11 6 0 10 -7 10 -15 0 -8 4 -15 8 -15 22 0 37 -197 19 -240 -15 -36
-25 -90 -17 -95 4 -3 6 -15 3 -27 -4 -13 0 -25 9 -32 19 -14 60 -105 52 -117
-3 -5 -1 -9 5 -9 5 0 10 -8 11 -17 0 -10 3 -43 6 -73 5 -63 5 -63 1 -110 -5
-45 -28 -120 -38 -120 -4 0 -11 -10 -15 -22 -9 -31 -89 -106 -119 -114 -14 -3
-25 -11 -25 -16 0 -5 -5 -8 -12 -6 -7 3 -37 -2 -68 -9 -59 -15 -69 -17 -85
-13 -5 1 -47 2 -92 1 l-83 -1 0 -1071 0 -1071 33 5 c17 3 66 15 107 27 41 12
104 23 140 25 36 2 67 4 70 5 3 0 -2 5 -10 11 -12 8 -10 9 10 7 14 -1 31 1 38
6 8 5 18 4 25 -3 14 -14 30 -15 22 -1 -3 6 4 11 17 11 38 2 70 6 133 17 33 6
105 13 160 16 99 5 197 13 285 22 25 3 64 6 88 7 23 1 42 5 42 9 0 4 7 5 15 2
8 -4 15 -2 15 2 0 5 37 9 83 10 105 1 237 14 237 23 0 3 18 5 40 3 22 -2 40 0
40 4 0 5 36 8 80 7 57 -2 80 1 80 10 0 7 3 8 8 2 9 -13 42 -16 42 -4 0 8 53 4
93 -7 9 -3 17 0 17 6 0 7 6 8 17 2 15 -8 68 -9 68 -2 0 1 79 3 175 5 96 1 247
5 335 10 88 4 193 8 233 8 39 0 72 3 72 6 0 3 53 6 118 6 221 0 487 20 477 35
-12 20 94 27 114 8 11 -10 13 -10 7 0 -4 6 -2 12 3 12 6 0 11 -6 11 -12 1 -8
6 -6 14 5 13 17 16 17 45 3 21 -11 32 -13 37 -5 4 8 9 7 15 -2 7 -10 11 -11
17 -2 8 13 92 20 110 9 14 -9 54 2 64 18 5 8 8 8 8 0 0 -6 15 -9 38 -7 20 1
45 3 55 4 9 0 17 5 17 11 0 7 4 7 13 1 14 -11 122 -11 133 0 4 4 13 2 21 -4
10 -9 13 -8 13 1 0 10 3 10 15 0 8 -6 20 -8 27 -4 7 5 47 9 88 10 41 1 147 5
235 9 249 11 332 14 445 15 58 1 122 5 142 9 23 6 38 5 38 -1 0 -5 6 -5 17 1
10 5 26 5 39 1 12 -5 25 -6 28 -3 3 4 44 7 91 8 47 1 88 5 92 8 3 4 32 4 64 0
47 -5 59 -3 59 8 0 11 2 11 10 -1 9 -13 11 -13 20 0 8 12 11 13 19 1 5 -8 16
-11 29 -7 11 4 57 7 101 8 45 1 81 5 81 8 0 4 14 5 30 2 17 -2 36 1 44 7 8 7
17 8 20 3 7 -12 78 -4 87 9 3 5 13 7 22 3 13 -5 19 1 23 25 4 17 10 28 15 25
5 -3 12 3 15 13 4 10 22 57 41 104 20 50 31 94 27 105 -4 14 -3 15 4 6 7 -10
13 -4 26 25 25 56 42 84 48 77 3 -3 9 14 13 38 4 23 13 47 20 53 21 17 52 71
35 60 -8 -5 -5 4 8 19 12 16 22 34 22 41 0 6 17 35 39 63 27 37 42 70 50 113
15 75 30 109 48 109 7 0 13 11 13 28 3 184 7 229 23 259 10 18 17 35 17 38 0
13 59 60 96 77 24 10 46 23 49 28 3 4 18 11 34 15 15 3 37 15 49 25 11 10 22
16 25 13 7 -7 56 29 57 42 0 6 14 21 31 35 17 14 40 35 51 47 21 22 28 22 87
-4 18 -8 74 -26 124 -39 50 -14 154 -45 231 -69 78 -25 184 -54 236 -65 135
-28 170 -39 205 -65 40 -30 94 -45 125 -33 28 10 77 6 107 -11 12 -6 30 -11
40 -11 10 0 29 -9 43 -20 25 -20 60 -27 60 -12 0 4 9 13 20 20 18 11 24 9 43
-12 32 -34 69 -41 117 -22 26 10 54 14 83 10 32 -5 46 -2 56 10 8 9 28 16 48
16 31 0 34 -2 28 -22 -6 -17 -4 -20 9 -15 10 4 15 3 12 -2 -6 -10 39 -19 66
-13 9 2 18 12 20 24 3 18 12 21 103 26 55 2 111 4 125 4 14 -1 54 -2 90 -3 38
0 67 -5 72 -12 5 -9 14 -8 35 5 16 9 81 23 148 32 86 11 136 23 175 42 37 18
83 30 140 36 47 5 120 16 163 24 42 8 99 14 125 14 26 0 81 11 123 24 100 33
172 39 304 28 108 -9 114 -11 232 -71 76 -38 127 -69 134 -83 21 -42 80 -108
95 -108 8 0 12 -4 9 -10 -3 -5 -3 -10 2 -11 32 -3 59 -11 61 -19 2 -6 9 -10
16 -10 21 0 85 -71 97 -107 15 -46 7 -128 -16 -178 -11 -22 -43 -63 -72 -93
-29 -29 -53 -61 -53 -70 0 -10 -5 -23 -12 -30 -8 -8 -6 -35 11 -109 13 -54 27
-109 32 -122 7 -17 4 -47 -12 -108 -11 -47 -18 -87 -15 -90 3 -3 52 -1 108 5
57 6 150 12 208 13 58 1 121 2 140 4 19 1 132 5 250 9 198 6 482 19 705 31 50
2 158 7 240 10 83 4 157 8 165 10 8 2 134 6 280 10 146 3 276 8 290 10 14 2
115 7 225 10 110 3 295 10 410 16 372 19 575 26 805 28 124 1 263 4 310 6 47
2 186 6 310 10 441 13 457 15 466 50 6 23 54 76 54 60 0 -5 7 0 15 11 8 10 15
15 15 9 0 -5 4 -4 9 4 15 24 138 31 186 10 17 -6 35 -11 42 -10 7 1 17 -8 23
-19 6 -11 17 -20 25 -20 7 0 22 -11 32 -23 17 -22 26 -24 131 -26 61 -1 112 2
112 6 0 4 10 8 23 9 68 3 158 13 168 20 7 4 9 3 6 -3 -8 -13 27 -15 293 -17
196 -1 691 12 713 19 6 2 86 6 177 9 186 6 302 12 540 26 91 5 289 12 440 15
151 3 292 8 313 11 l37 7 -4 3421 c-2 1881 -4 3439 -4 3461 0 22 2 568 5 1213
l4 1172 -3170 0 c-2526 0 -3170 -3 -3174 -12 -2 -7 3 -21 11 -31 14 -16 14
-19 2 -28 -12 -7 -9 -8 9 -7 27 3 35 -20 20 -59 -6 -17 -6 -30 1 -38 8 -9 8
-15 0 -20 -6 -4 -10 -12 -9 -18 4 -30 -2 -47 -17 -47 -9 0 -14 -6 -11 -14 5
-13 -25 -46 -43 -46 -6 0 -10 -5 -10 -10 0 -6 -11 -8 -25 -4 -14 3 -32 1 -39
-6 -11 -8 -20 -9 -35 0 -12 6 -21 7 -21 1 0 -5 -9 -7 -20 -4 -13 3 -20 0 -20
-8 0 -12 -2 -12 -9 0 -5 8 -18 12 -31 8 -16 -4 -20 -2 -16 9 4 11 2 12 -13 4
-14 -7 -25 -5 -44 10 -14 11 -27 16 -29 11 -1 -4 -12 -5 -23 0 -17 6 -17 8 -2
8 23 1 22 21 -1 21 -19 0 -27 30 -8 30 6 0 3 5 -7 11 -9 5 -22 7 -27 4 -6 -3
-15 6 -20 21 -8 21 -8 29 2 36 10 6 9 8 -4 8 -11 0 -15 6 -11 20 4 14 -2 23
-21 31 -15 7 -23 15 -18 18 5 3 0 15 -11 26 -17 17 -19 17 -14 3 4 -10 2 -18
-3 -18 -14 0 -12 -33 3 -54 17 -23 10 -74 -12 -79 -10 -3 -7 -6 9 -7 14 -1 29
-2 33 -1 5 1 6 -3 2 -9 -3 -5 -12 -10 -20 -10 -7 0 -12 -10 -11 -25 0 -14 4
-25 9 -25 4 0 7 -5 7 -11 0 -6 -6 -9 -13 -6 -11 4 -12 -5 -7 -39 4 -26 3 -44
-3 -44 -5 0 -7 -9 -4 -20 3 -11 1 -17 -4 -14 -9 5 -6 -24 7 -63 2 -7 -1 -13
-6 -13 -13 0 -1 -32 18 -47 11 -9 12 -13 3 -13 -7 0 -9 -5 -6 -10 4 -6 11 -8
16 -5 5 4 9 2 9 -4 0 -5 -5 -13 -10 -16 -8 -5 -8 -11 0 -20 8 -9 8 -14 0 -17
-19 -6 1 -38 33 -54 35 -19 77 -58 77 -74 0 -14 17 -13 24 3 3 6 4 0 2 -15 -2
-19 1 -28 10 -28 8 0 11 7 8 18 -3 9 2 6 10 -8 14 -23 15 -23 16 -5 1 15 5 12
16 -13 8 -18 11 -38 8 -45 -5 -8 -4 -9 4 -2 5 6 12 19 15 30 4 17 5 17 6 -4 1
-14 -10 -34 -24 -47 -14 -13 -25 -20 -25 -16 0 4 -13 -8 -29 -25 -15 -18 -31
-29 -35 -25 -4 4 -12 -1 -17 -11 -6 -9 -14 -15 -20 -12 -5 4 -9 0 -9 -8 0 -13
-43 -33 -62 -29 -5 1 -8 -2 -8 -7 0 -5 -15 -13 -32 -16 -18 -4 -37 -10 -43
-14 -29 -18 -80 -29 -86 -19 -4 6 -12 7 -18 3 -24 -14 -66 -13 -83 3 -13 11
-18 12 -18 2 0 -10 -3 -10 -15 0 -10 8 -15 9 -15 1 0 -7 -8 -8 -24 -1 -43 16
-176 122 -174 139 0 3 -1 8 -2 11 -1 3 -3 12 -5 20 -2 8 -13 41 -24 72 -12 32
-21 65 -21 73 0 9 -7 18 -15 21 -8 4 -12 10 -9 15 3 5 0 17 -5 26 -8 14 -11
15 -11 3 -1 -8 -8 2 -17 23 -8 20 -18 37 -22 37 -4 0 -7 10 -8 22 -1 11 -7 24
-14 28 -6 4 -13 24 -16 44 -2 20 -12 52 -23 72 -11 19 -22 44 -23 54 -2 11
-15 30 -30 44 -15 14 -27 31 -27 38 0 8 -13 28 -30 46 -16 18 -30 37 -30 43 0
5 -5 9 -10 9 -13 0 -60 49 -60 62 0 5 -4 7 -9 3 -5 -3 -16 4 -24 15 -7 11 -17
17 -20 14 -4 -4 -9 1 -13 10 -3 9 -12 16 -20 16 -8 0 -14 4 -14 8 0 7 -57 46
-70 47 -3 1 -31 11 -63 23 l-58 22 -4507 -2 c-3998 -3 -4507 -5 -4508 -18 -1
-8 -3 -17 -4 -20 -8 -15 -6 -50 2 -50 6 0 7 -7 4 -16 -4 -9 -1 -23 5 -30 6 -8
9 -14 5 -14 -3 0 1 -17 9 -37 12 -29 13 -38 3 -45 -10 -6 -9 -12 5 -22 12 -9
14 -16 8 -21 -6 -3 -11 -12 -11 -20 0 -28 -64 -84 -108 -94 -39 -8 -45 -7 -72
19 -16 15 -32 25 -36 21 -4 -3 -4 0 0 6 4 7 2 22 -4 33 -9 17 -8 27 4 45 9 14
16 33 16 44 0 11 5 23 11 26 5 4 8 12 6 18 -2 7 4 34 14 60 11 26 19 63 19 82
l0 35 -909 0 -910 0 2 -27z m752 -109 c33 -9 68 -16 77 -17 9 -1 14 -5 11 -10
-3 -5 3 -7 13 -5 11 2 18 -2 17 -9 -2 -7 2 -13 8 -13 5 0 8 -4 5 -9 -4 -5 -2
-21 3 -34 8 -19 6 -27 -5 -31 -8 -3 -14 -17 -14 -31 0 -18 -5 -25 -20 -25 -31
0 -24 -20 8 -21 27 0 27 -1 5 -11 -13 -6 -23 -15 -23 -20 0 -4 10 -8 23 -9 14
0 17 -3 7 -6 -8 -4 -21 -12 -28 -20 -11 -11 -11 -13 2 -13 20 0 20 -7 2 -26
-16 -15 -41 -20 -32 -5 3 5 -5 16 -19 25 -29 19 -35 20 -35 3 0 -14 -38 -40
-62 -42 -12 -1 -18 5 -18 17 0 11 -5 16 -11 13 -6 -4 -8 -13 -6 -19 4 -9 -3
-11 -20 -8 -18 3 -24 1 -19 -7 10 -16 -3 -14 -20 3 -11 11 -11 16 -1 20 8 3 6
9 -7 20 -11 9 -15 16 -8 16 7 0 11 16 10 45 -1 25 -6 45 -10 45 -4 0 -8 -7 -8
-16 0 -9 -5 -14 -11 -12 -6 2 -10 8 -10 13 0 6 -7 14 -15 18 -8 4 -14 15 -14
22 0 14 -17 20 -47 16 -20 -3 -10 62 14 92 12 16 28 27 35 26 11 -3 62 6 101
16 4 2 17 4 30 5 21 2 21 2 -3 10 -49 16 30 10 95 -6z m2334 -55 c10 15 55 6
45 -10 -3 -5 -10 -7 -15 -3 -6 3 -5 -3 2 -14 7 -11 18 -18 25 -15 10 3 12 -9
10 -48 -2 -43 -6 -53 -24 -60 -12 -5 -22 -13 -22 -19 0 -21 -26 -37 -53 -34
-18 2 -25 -1 -21 -8 5 -7 2 -8 -7 -3 -7 5 -22 10 -33 10 -10 1 -23 9 -27 18
-5 9 -16 14 -24 10 -11 -4 -13 -1 -9 11 3 9 1 16 -5 16 -6 0 -11 -5 -11 -11 0
-5 -5 -7 -11 -3 -8 5 -8 9 1 14 7 4 9 13 6 19 -4 6 -2 11 3 11 6 0 11 12 11
26 0 23 3 25 25 20 14 -4 25 -2 25 4 0 5 8 10 18 10 21 0 45 24 56 55 6 16 9
17 17 5 7 -13 10 -13 18 -1z m5751 -393 c22 -9 44 -11 68 -5 19 4 46 3 59 -2
25 -9 195 -22 248 -19 42 3 216 2 241 -2 11 -1 25 -12 31 -25 16 -33 -13 -54
-79 -58 -29 -2 -77 -13 -106 -24 -29 -12 -65 -20 -80 -19 -33 2 -72 -10 -72
-23 0 -5 -10 -9 -22 -10 -22 0 -22 -1 2 -10 13 -6 34 -8 47 -4 12 3 25 1 28
-5 3 -5 0 -11 -7 -11 -7 -1 -24 -3 -38 -4 -14 -1 -49 4 -78 11 -29 8 -62 14
-73 14 -19 0 -20 -1 -3 -17 17 -17 17 -18 -5 -21 -12 -2 -28 1 -35 7 -9 7 -16
7 -24 -1 -9 -9 -15 -7 -27 8 -12 16 -14 16 -9 2 8 -22 -14 -24 -41 -4 -17 12
-21 12 -33 -3 -7 -9 -11 -11 -7 -4 8 18 -32 36 -71 31 -27 -3 -34 0 -34 13 0
10 -10 19 -27 22 -30 6 -52 -10 -45 -33 2 -8 -12 2 -32 23 -32 34 -63 45 -101
37 -38 -8 -45 -8 -50 1 -4 5 -15 9 -26 9 -10 0 -19 6 -19 14 0 17 77 29 101
15 27 -14 49 -11 43 6 -4 8 -1 16 5 16 15 2 23 4 44 14 20 8 77 -12 77 -28 0
-6 3 -7 6 -4 4 4 -1 18 -10 32 -16 24 -16 25 9 25 14 0 25 5 25 10 0 6 16 10
35 10 22 0 38 6 41 15 7 18 4 18 44 1z m904 -337 c18 -14 26 -30 26 -51 0 -18
8 -36 21 -47 l21 -17 -23 -1 c-13 -1 -31 5 -41 13 -13 13 -23 14 -45 6 -24 -9
-25 -11 -6 -11 12 -1 25 -6 29 -13 5 -8 2 -9 -12 -4 -10 4 -52 14 -92 22 -78
15 -110 29 -157 68 -21 17 -25 25 -14 26 9 0 19 -3 23 -7 4 -4 26 -12 50 -18
40 -10 43 -10 38 7 -3 13 1 18 17 18 12 0 24 -6 27 -14 8 -21 44 -7 55 20 11
30 47 32 83 3z m-634 -201 c0 -5 -4 -8 -10 -8 -5 0 -10 -5 -10 -11 0 -7 7 -8
18 -4 9 4 31 8 47 9 24 1 31 -3 33 -21 2 -13 7 -23 12 -23 20 0 27 -129 8
-164 -10 -18 -9 -19 3 -9 12 10 14 4 14 -38 0 -33 -4 -49 -13 -49 -7 0 -15 -7
-18 -15 -4 -8 -12 -15 -20 -15 -8 0 -14 -4 -14 -10 0 -5 9 -10 20 -10 11 0 20
4 20 9 0 5 9 7 20 4 11 -3 17 -9 15 -14 -11 -17 7 -59 26 -59 10 0 19 -5 19
-10 0 -6 11 -15 25 -20 14 -5 25 -14 25 -20 0 -5 5 -10 11 -10 23 0 70 -66 85
-120 9 -30 20 -59 25 -64 5 -6 9 -22 9 -37 0 -15 4 -30 8 -33 5 -3 9 -33 10
-67 1 -34 3 -64 6 -67 11 -11 71 78 82 121 1 4 3 10 4 15 1 4 1 19 0 34 -1 14
3 29 9 33 6 3 11 13 11 21 0 22 19 38 81 67 83 39 100 41 139 15 46 -31 100
-135 100 -191 -1 -102 -60 -260 -123 -325 -33 -34 -101 -72 -130 -72 -24 0
-87 59 -87 81 0 10 5 19 11 19 6 0 9 6 6 13 -2 6 -10 11 -16 9 -7 -1 -10 2 -7
7 4 5 2 12 -4 16 -9 5 -14 -7 -11 -27 4 -28 -1 -91 -9 -118 -1 -3 -6 6 -11 19
-7 18 -12 22 -21 13 -6 -6 -12 -21 -13 -33 -1 -15 3 -19 17 -16 22 6 34 -11
19 -26 -8 -8 -11 -7 -11 3 0 7 -3 10 -6 7 -4 -4 -1 -13 6 -22 8 -10 9 -15 1
-15 -6 0 -11 -5 -11 -11 0 -5 6 -7 13 -3 6 4 3 -3 -8 -15 -11 -13 -19 -25 -17
-27 6 -10 1 -24 -9 -24 -6 0 -9 6 -6 14 4 9 -2 14 -20 14 -13 0 -30 5 -36 11
-8 8 -6 11 8 11 10 0 15 3 11 7 -10 10 -46 11 -52 1 -3 -4 0 -8 5 -8 7 0 9
-14 6 -35 -2 -19 0 -35 5 -35 6 0 10 -5 10 -10 0 -7 -7 -7 -21 1 -16 8 -20 17
-15 39 4 24 2 28 -13 27 -11 -1 -17 -7 -14 -14 3 -7 1 -13 -3 -13 -15 0 -30
14 -37 33 -5 14 -3 17 11 13 15 -5 19 -1 19 24 0 23 -4 29 -15 25 -9 -3 -19 0
-23 6 -4 6 -12 8 -19 4 -9 -6 -9 -9 0 -15 7 -5 2 -9 -16 -13 -20 -3 -33 1 -51
19 -26 26 -43 33 -23 10 8 -11 9 -20 1 -33 -10 -17 -10 -17 -11 0 0 24 -6 22
-40 -13 -17 -17 -30 -26 -30 -20 0 6 -5 8 -11 5 -6 -5 -3 -13 10 -22 12 -8 21
-21 21 -29 0 -9 5 -12 11 -8 8 4 9 -1 4 -17 -4 -13 -12 -25 -16 -27 -17 -7 -9
-22 11 -22 11 0 20 -7 20 -15 0 -18 16 -20 23 -2 3 7 6 5 6 -5 1 -12 -6 -18
-19 -18 -11 0 -20 -4 -20 -10 0 -5 0 -12 0 -15 0 -3 3 -5 8 -6 22 -3 41 -21
35 -35 -5 -13 -2 -15 15 -9 13 4 22 2 22 -4 0 -6 -6 -11 -13 -11 -17 0 -59
-48 -55 -62 2 -6 14 -1 26 12 12 13 24 21 27 18 3 -3 -1 -13 -11 -22 -13 -14
-14 -19 -3 -34 7 -9 10 -14 5 -10 -5 4 -17 3 -27 -2 -10 -6 -20 -6 -23 -2 -3
5 -15 8 -28 7 -12 -1 -33 4 -46 11 -33 17 -60 7 -35 -12 10 -7 26 -14 35 -14
24 0 33 -20 9 -20 -10 0 -26 -3 -35 -6 -10 -4 -16 -1 -16 10 0 10 -6 13 -17
10 -12 -4 -14 -3 -6 3 6 4 9 20 6 36 -5 26 -18 36 -25 19 -1 -4 -21 -3 -43 4
l-40 12 33 1 c36 1 43 16 11 26 -16 5 -18 9 -8 15 10 7 10 12 1 23 -7 8 -12
19 -11 23 1 5 1 18 0 29 -1 15 -3 17 -10 6 -5 -7 -14 -10 -20 -6 -7 4 -27 9
-44 12 -18 3 -39 9 -47 13 -26 14 -181 32 -209 24 -14 -4 -33 -6 -42 -5 -20 2
-103 -77 -104 -100 -1 -11 2 -19 5 -19 4 0 8 -12 8 -26 0 -14 5 -31 12 -37 10
-10 11 -4 7 25 -8 50 8 57 47 19 30 -29 34 -30 71 -20 22 6 45 14 50 18 18 14
45 21 45 12 0 -11 -51 -63 -82 -83 -40 -26 -96 -24 -108 5 l-9 22 0 -23 c-1
-13 8 -44 20 -69 17 -37 18 -47 7 -54 -7 -5 -17 -9 -22 -9 -5 0 -17 -6 -25
-14 -16 -14 -289 -104 -345 -114 -18 -3 -31 1 -37 9 -6 10 -9 11 -9 2 0 -19
-17 -16 -24 5 -4 9 -16 33 -26 52 -15 27 -20 30 -21 15 0 -18 -1 -18 -9 3 -5
12 -15 22 -23 22 -7 0 -20 11 -27 25 -7 13 -17 22 -22 19 -5 -3 -12 3 -15 15
-3 12 -9 21 -14 21 -5 0 -6 -8 -3 -17 2 -10 0 -9 -7 4 -6 12 -20 24 -31 26
-11 3 -22 15 -25 26 -3 12 -14 21 -24 21 -22 0 -34 16 -17 23 8 4 4 8 -9 12
-17 6 -22 14 -21 39 0 17 -2 46 -6 64 -5 21 -4 32 3 32 6 0 11 8 11 18 0 9 7
26 15 36 8 11 15 27 15 35 0 9 16 27 34 41 19 14 33 28 33 31 -3 9 55 59 69
59 8 0 14 6 14 13 0 11 74 46 76 36 0 -2 9 3 19 11 10 8 33 16 52 17 19 1 41
7 48 13 7 6 33 9 58 7 l46 -4 0 131 c0 72 0 147 0 166 1 34 1 34 17 12 10 -15
22 -21 34 -17 13 4 27 -5 48 -31 27 -32 33 -35 62 -29 22 5 35 3 40 -5 5 -9 9
-9 14 -1 4 6 3 11 -2 11 -5 0 1 21 14 47 13 25 24 61 24 78 0 51 -22 145 -34
146 -6 0 -26 2 -44 5 -18 2 -42 -1 -52 -6 -14 -7 -36 -6 -80 7 -48 13 -63 14
-69 4 -5 -7 -8 -2 -9 16 0 15 -6 59 -12 96 -10 67 -5 187 10 217 4 8 10 29 13
47 4 18 16 42 28 54 24 24 79 49 109 49 11 0 20 7 20 15 0 16 30 18 85 6 23
-5 37 -1 61 18 18 13 43 25 55 27 13 1 34 5 46 9 15 5 27 1 41 -13 18 -18 21
-19 27 -4 5 13 8 14 14 3 7 -10 12 -8 24 9 14 20 19 21 49 11 19 -6 74 -40
122 -76 76 -56 106 -74 106 -62 0 2 -24 21 -52 42 -29 22 -57 45 -63 51 -5 6
-25 21 -44 34 -23 16 -30 25 -20 29 7 2 19 10 26 17 7 7 41 12 84 12 54 0 74
4 80 15 7 12 14 13 34 4 14 -7 25 -15 25 -19z m-6089 -37 c-1 -2 3 -7 9 -11
15 -10 20 -59 8 -86 -7 -16 -16 -20 -32 -16 -21 6 -46 25 -46 37 0 4 -7 14
-16 23 -15 15 -16 14 -10 -5 5 -16 1 -22 -19 -27 -14 -4 -30 -4 -35 -1 -6 4
-10 1 -10 -4 0 -6 -5 -11 -11 -11 -6 0 -8 9 -3 22 6 20 5 21 -9 10 -13 -11
-16 -10 -22 7 -3 12 -14 21 -23 22 -10 0 -3 7 16 15 30 13 44 34 22 34 -5 0
-10 4 -10 10 0 6 9 6 25 0 15 -6 26 -6 30 0 8 13 88 10 97 -4 4 -6 10 -3 14 8
7 18 7 18 17 0 6 -11 10 -21 8 -23z m3499 -100 c0 -5 11 -8 25 -6 14 1 25 -3
25 -9 0 -7 3 -7 8 1 9 14 52 6 52 -10 0 -6 3 -8 6 -4 8 8 44 -25 38 -35 -3 -4
-2 -14 3 -20 4 -7 8 -16 9 -20 1 -5 3 -10 4 -13 6 -11 5 -65 -1 -65 -4 0 -9
-10 -12 -21 -4 -14 -11 -20 -20 -16 -11 4 -13 0 -10 -14 4 -15 1 -20 -10 -17
-9 2 -23 -6 -31 -17 -14 -17 -17 -18 -26 -5 -6 9 -10 10 -10 3 0 -20 -30 -43
-56 -43 -13 0 -24 -4 -24 -9 0 -5 -19 -8 -42 -7 -30 2 -44 8 -49 22 -7 17 -8
17 -8 2 -1 -19 -17 -25 -23 -8 -1 5 -17 10 -35 12 -22 1 -35 9 -42 25 -9 20
-28 29 -55 24 -5 -1 -6 5 -3 13 4 10 1 13 -9 9 -8 -3 -15 1 -15 8 -6 57 -6 77
-1 97 3 16 7 20 12 12 6 -9 10 -6 15 9 6 20 16 25 43 22 6 -1 12 2 12 7 0 5 6
9 13 9 7 0 39 12 71 27 41 19 68 26 88 22 20 -4 30 -1 34 9 7 16 24 21 24 6z
m-3470 -362 c0 15 36 14 52 -2 7 -8 19 -12 25 -10 7 3 22 -1 34 -8 22 -11 22
-12 3 -26 -18 -13 -17 -14 9 -7 21 5 28 3 26 -7 -2 -8 5 -27 16 -43 13 -20 16
-31 8 -33 -7 -3 -10 -10 -7 -18 3 -8 -4 -16 -16 -20 -12 -4 -26 -18 -32 -31
-8 -17 -19 -24 -40 -24 -15 0 -28 -5 -28 -11 0 -5 -5 -7 -11 -3 -6 3 -15 0
-20 -7 -7 -12 -14 -11 -39 3 -17 10 -37 15 -45 12 -9 -4 -21 -1 -29 5 -7 6
-16 7 -20 3 -4 -4 -7 -2 -6 3 5 21 -1 29 -10 15 -8 -13 -10 -13 -10 1 0 12 -7
15 -25 11 -21 -4 -24 -1 -18 14 5 14 3 16 -12 11 -29 -12 -58 2 -52 24 3 10 1
22 -4 25 -5 3 -9 -2 -9 -10 0 -9 -4 -16 -10 -16 -13 0 -13 37 0 45 6 4 8 11 5
16 -4 5 -1 9 4 9 6 0 12 -8 12 -17 1 -10 4 -4 8 12 5 22 2 32 -9 38 -8 4 -1 5
18 2 24 -3 32 -1 32 10 0 22 31 18 37 -5 7 -27 23 -25 23 3 1 22 1 22 16 -3
l15 -25 -7 24 c-5 21 -3 23 15 18 11 -3 21 -2 21 2 0 13 54 28 68 18 8 -6 12
-6 12 2z m1260 -78 c0 -5 10 -7 23 -4 18 4 19 3 7 -7 -13 -9 -12 -11 5 -9 27
4 65 -10 65 -22 0 -6 10 -9 23 -7 14 2 21 -2 19 -11 -2 -8 3 -11 12 -8 11 4
16 -5 21 -33 8 -47 -8 -80 -38 -81 -12 0 -16 -3 -9 -6 23 -9 12 -20 -23 -21
-20 -1 -43 -8 -51 -17 -17 -16 -44 -20 -44 -6 0 5 7 8 16 7 9 0 19 5 22 13 3
10 1 11 -9 5 -8 -5 -16 -9 -19 -10 -3 0 -14 -4 -24 -9 -13 -5 -23 -4 -30 6 -6
8 -18 15 -26 17 -8 2 -23 11 -32 19 -11 10 -18 12 -18 5 0 -20 -18 -13 -25 8
-3 11 -15 20 -26 20 -10 0 -19 5 -19 10 0 6 5 10 12 10 9 0 9 3 0 12 -7 7 -12
15 -12 20 0 14 82 88 91 82 5 -3 9 1 9 9 0 9 13 14 40 15 22 1 40 -2 40 -7z
m-547 -360 c21 -5 41 -12 44 -15 3 -3 -10 -43 -28 -91 l-34 -85 -45 1 c-37 2
-72 11 -88 24 -1 1 5 22 13 46 9 24 14 52 11 63 -3 10 2 29 11 42 17 26 49 30
116 15z m6125 -178 c9 -3 22 -7 27 -7 25 -2 102 -42 123 -64 12 -13 26 -21 31
-17 5 3 12 -4 16 -15 3 -11 11 -20 16 -20 5 0 9 -9 9 -20 0 -13 5 -18 15 -14
10 4 13 2 10 -7 -5 -13 7 -22 77 -65 10 -6 15 -14 12 -17 -4 -3 6 -12 22 -19
16 -7 36 -20 45 -28 33 -31 60 -50 69 -50 6 0 10 -5 10 -11 0 -5 4 -8 9 -4 5
3 12 1 15 -4 3 -5 23 -12 43 -15 56 -10 74 -17 69 -25 -3 -4 5 -7 17 -6 12 1
43 -11 70 -27 26 -15 52 -28 57 -28 6 0 10 -4 10 -10 0 -5 7 -10 15 -10 9 0
18 -7 21 -15 4 -9 12 -14 19 -13 18 4 135 -122 135 -144 0 -28 1 -32 11 -44
20 -25 9 -142 -16 -160 -8 -6 -15 -21 -15 -34 0 -15 -4 -20 -14 -17 -11 4 -13
1 -9 -10 4 -10 2 -14 -5 -9 -6 3 -13 2 -17 -4 -3 -5 -22 -10 -41 -10 -19 0
-34 -4 -34 -9 0 -4 -21 -11 -47 -14 -59 -7 -141 20 -194 63 -20 16 -72 47
-115 68 -44 21 -101 60 -129 85 -52 49 -84 61 -150 55 l-40 -3 42 -23 c61 -32
79 -56 99 -129 16 -58 16 -75 5 -151 -8 -59 -9 -88 -2 -95 19 -19 12 -58 -20
-113 -36 -64 -59 -83 -153 -129 -87 -43 -198 -72 -309 -81 -109 -9 -250 3
-274 23 -10 8 -13 12 -6 9 11 -6 43 71 43 106 0 10 5 18 10 18 6 0 10 6 10 13
0 8 9 22 20 32 11 10 17 21 14 26 -2 4 2 25 11 45 8 20 22 64 30 98 17 66 33
103 53 124 6 7 12 18 12 23 0 14 -20 11 -21 -3 0 -10 -2 -10 -6 -1 -6 16 20
43 41 43 10 0 16 9 16 24 0 14 6 31 14 39 11 11 12 17 3 26 -8 8 -6 11 7 11
16 0 17 2 5 17 -13 15 -12 15 8 5 26 -14 40 0 18 18 -20 17 -19 20 16 58 26
28 28 32 10 32 -14 0 -18 5 -14 20 6 23 23 27 23 5 0 -13 6 -17 26 -14 4 0 10
-5 15 -12 4 -8 12 -10 16 -5 4 4 -4 17 -20 28 -15 11 -27 26 -27 34 0 8 -4 14
-10 14 -10 0 -32 69 -24 81 2 4 0 10 -6 14 -15 10 -12 23 8 28 14 4 14 6 -5
12 -13 4 -23 15 -23 26 0 11 -6 18 -12 17 -21 -5 -22 40 -1 45 15 4 14 5 -4 6
-12 0 -25 5 -28 11 -3 6 1 7 9 4 9 -3 16 -1 16 5 0 6 6 8 14 5 8 -3 17 -1 21
5 3 6 -1 11 -9 11 -22 0 -20 12 4 33 11 9 20 22 20 29 0 10 -2 10 -8 1 -12
-18 -28 -1 -27 30 0 19 4 26 14 22 9 -4 11 0 7 11 -5 12 -2 15 10 10 8 -3 20
-6 25 -6 5 0 9 -8 9 -17 0 -15 -2 -16 -10 -3 -11 17 -13 10 -4 -13 4 -12 10
-12 30 -3 27 13 39 45 49 131 4 33 11 65 17 72 9 11 17 11 56 -4z m-6224 -270
c-3 -49 -7 -101 -9 -118 -3 -33 -24 -95 -32 -95 -13 0 -32 31 -27 44 3 9 2 16
-3 16 -17 0 -13 132 5 170 20 41 43 68 60 69 9 1 11 -19 6 -86z m150 -69 c9
-8 16 -24 16 -35 0 -11 7 -27 15 -35 8 -9 15 -24 15 -35 0 -23 38 -27 46 -4 4
8 13 15 22 15 21 0 62 -39 62 -60 0 -17 27 -60 38 -60 15 0 41 56 32 70 -5 8
-3 25 6 42 8 15 11 28 7 28 -5 0 -1 5 7 10 8 5 16 14 16 20 1 5 2 12 3 15 0 3
10 1 21 -5 15 -8 19 -18 16 -38 -3 -15 -7 -43 -10 -62 -9 -54 -14 -79 -20 -89
-4 -5 -1 -11 6 -13 6 -2 17 -20 23 -39 11 -31 16 -35 61 -40 69 -9 131 -27
192 -55 57 -27 72 -25 72 9 0 12 4 28 9 36 23 36 76 -150 83 -288 l3 -55 -65
-23 c-75 -28 -145 -40 -135 -24 15 25 -59 5 -99 -26 -21 -17 -26 -27 -21 -43
4 -13 12 -19 20 -16 9 3 12 0 9 -9 -3 -8 -12 -11 -19 -9 -7 3 -16 1 -20 -5 -3
-6 -1 -11 5 -11 7 0 9 -7 6 -16 -5 -14 -4 -15 7 -5 11 9 17 7 28 -6 12 -15 12
-16 -3 -10 -12 4 -18 2 -18 -8 0 -15 10 -19 43 -16 9 1 17 -3 17 -9 0 -6 4 -9
8 -6 4 2 14 1 22 -5 11 -6 12 -9 2 -9 -7 0 -10 -5 -7 -10 4 -6 11 -8 16 -4 7
4 9 -7 7 -27 -3 -30 -6 -34 -28 -31 -40 4 -80 4 -168 -1 -45 -2 -85 0 -88 4
-2 4 -11 6 -19 2 -8 -3 -15 0 -15 6 0 6 -5 11 -11 11 -7 0 -19 9 -29 20 -9 11
-34 22 -55 25 -21 2 -46 12 -56 21 -19 17 -49 70 -49 86 0 4 -10 18 -21 29
-17 17 -23 19 -30 8 -12 -20 -40 -1 -63 45 -17 34 -17 40 -3 82 10 30 12 57 7
80 -5 19 -5 54 -2 77 8 46 7 187 -1 287 -12 157 33 268 87 214z m8916 -3 c0
-4 14 -7 30 -5 23 3 30 0 31 -14 0 -9 3 -12 5 -6 6 15 64 4 64 -12 0 -17 16
-18 24 -1 3 6 3 2 0 -10 -4 -19 -1 -23 16 -23 12 0 19 4 16 8 -6 10 41 8 51
-2 4 -4 1 -11 -7 -17 -10 -6 -1 -7 27 -3 34 5 44 3 49 -10 4 -11 13 -15 25
-11 13 4 21 0 26 -12 4 -10 15 -27 25 -37 10 -11 18 -24 18 -29 0 -6 8 -16 18
-24 9 -8 11 -12 5 -8 -19 9 -16 -5 5 -24 9 -9 23 -34 31 -56 7 -22 21 -49 30
-59 10 -13 11 -17 2 -11 -9 5 -12 3 -9 -6 3 -8 17 -13 34 -12 16 1 21 -1 12
-3 -11 -3 -15 -11 -11 -21 5 -12 2 -15 -9 -10 -13 4 -15 -1 -14 -24 2 -20 -2
-28 -10 -25 -18 7 -36 -51 -23 -75 8 -16 6 -19 -16 -19 -14 0 -24 -3 -23 -7 1
-5 -4 -19 -11 -31 -9 -16 -19 -22 -32 -19 -11 3 -23 -1 -28 -10 -5 -10 -15
-13 -30 -8 -12 3 -19 10 -16 14 2 5 -6 6 -19 4 -17 -4 -25 1 -28 15 -4 13 -18
23 -39 27 -35 8 -83 35 -61 35 7 0 2 11 -10 25 -12 14 -28 23 -35 21 -15 -6
-18 10 -3 19 17 11 -2 35 -29 36 -14 0 -20 3 -13 6 6 2 12 9 12 14 0 6 -4 7
-10 4 -5 -3 -10 -1 -10 4 0 6 -7 11 -16 11 -8 0 -12 5 -9 10 3 6 -2 10 -12 10
-14 0 -15 2 -4 9 11 7 10 11 -6 20 -11 5 -23 7 -27 4 -3 -3 -6 4 -6 16 0 12
-11 42 -24 65 -13 24 -23 52 -23 62 1 11 -4 18 -12 16 -9 -2 -12 4 -8 18 4 17
3 19 -9 9 -12 -9 -13 -5 -10 29 4 43 32 91 54 92 19 0 14 20 -5 21 -12 0 -8 5
12 14 36 17 45 18 45 6z m-9356 -28 c14 -15 23 -30 20 -35 -3 -4 -1 -8 4 -8 5
0 9 -14 7 -32 -4 -48 5 -69 25 -63 30 10 46 -19 64 -118 22 -117 17 -183 -21
-254 -26 -50 -30 -53 -65 -53 -38 0 -44 -8 -38 -49 1 -13 -17 -31 -32 -31 -5
0 -8 8 -8 18 0 14 -2 14 -9 3 -6 -9 -6 -24 0 -38 16 -42 11 -73 -11 -73 -18 0
-64 41 -66 58 0 4 -6 19 -14 34 -12 26 -14 26 -26 10 -7 -9 -14 -25 -14 -34 0
-26 -17 -22 -36 7 l-16 25 -26 -25 c-27 -27 -47 -32 -58 -13 -5 7 -10 4 -15
-10 -10 -25 -27 -29 -35 -7 -4 8 -10 12 -16 9 -12 -8 10 -34 28 -34 8 0 14 -7
14 -16 0 -8 -4 -12 -10 -9 -5 3 -10 -1 -10 -9 0 -10 6 -13 18 -10 15 5 15 4
-2 -10 -11 -9 -17 -23 -13 -35 3 -12 0 -18 -7 -15 -21 8 -37 45 -38 85 0 21
-3 39 -7 39 -15 0 -5 70 13 83 16 12 18 27 17 118 -1 99 16 192 41 226 5 6 5
13 0 15 -4 1 -2 14 6 28 13 24 14 24 9 2 -5 -22 -4 -23 16 -9 12 8 22 22 22
30 0 9 6 22 13 29 6 6 12 16 12 21 0 5 9 20 19 33 l19 24 17 -27 18 -26 18 24
c10 13 19 29 19 36 0 6 8 18 19 25 10 7 21 23 25 36 4 12 12 22 17 22 6 0 17
7 25 15 22 22 40 19 68 -12z m3385 -2 c12 -8 12 -12 2 -25 -11 -13 -9 -13 12
-3 14 6 23 15 21 19 -3 5 -1 8 5 8 6 0 8 -22 6 -55 -3 -39 -1 -55 8 -55 6 0 4
-5 -6 -11 -13 -8 -15 -14 -7 -30 9 -15 7 -19 -5 -19 -11 0 -15 -10 -15 -35 0
-24 -5 -35 -15 -35 -8 0 -15 -7 -15 -16 0 -11 6 -14 23 -9 12 3 4 -4 -17 -16
-24 -13 -35 -24 -27 -28 7 -5 1 -15 -19 -29 -31 -23 -45 -28 -35 -13 3 5 1 12
-4 15 -5 3 -11 -3 -14 -14 -3 -11 -1 -20 4 -20 5 0 9 -8 9 -17 1 -16 2 -16 16
2 16 20 16 20 12 0 -5 -31 -33 -29 -47 2 -11 24 -14 26 -24 12 -17 -23 -55
-33 -72 -19 -8 7 -12 16 -9 21 3 5 -2 9 -11 9 -9 0 -13 4 -10 10 4 6 -1 7 -11
3 -13 -5 -16 -3 -11 10 4 11 -1 18 -14 22 -10 4 -17 10 -14 15 3 4 -3 11 -12
14 -15 6 -15 8 -3 16 12 8 10 10 -7 10 -13 0 -23 5 -23 10 0 6 4 10 10 10 10
0 2 31 -11 40 -7 5 43 68 58 73 5 1 8 7 7 12 -1 6 13 12 30 13 17 2 41 9 54
18 12 8 27 12 33 9 5 -4 22 7 38 24 28 30 49 42 36 21 -3 -5 0 -10 8 -10 8 0
17 7 21 15 3 8 12 12 21 9 8 -3 15 -2 15 4 0 6 -6 13 -12 15 -7 3 -8 6 -3 6 6
0 16 -3 24 -8z m10584 -108 c7 1 11 -4 9 -11 -1 -9 5 -11 23 -6 19 5 25 2 25
-9 0 -9 8 -24 18 -33 16 -17 16 -18 0 -11 -10 3 -18 2 -18 -3 0 -6 7 -10 15
-10 8 0 15 -4 15 -10 0 -5 -7 -7 -16 -3 -14 5 -15 3 -5 -15 10 -18 9 -22 -3
-22 -9 0 -14 -6 -12 -12 1 -7 1 -10 -1 -5 -3 4 -12 7 -20 7 -10 0 -14 -6 -10
-20 5 -18 1 -20 -29 -16 -25 2 -34 0 -30 -9 3 -9 -6 -10 -37 -4 -23 5 -46 8
-50 9 -5 0 -5 9 -2 20 4 12 2 20 -5 20 -6 0 -8 -4 -5 -10 3 -5 1 -10 -6 -10
-7 0 -9 9 -6 22 4 13 0 29 -9 39 -10 11 -12 23 -6 40 7 18 5 27 -7 37 -14 12
-14 13 5 9 18 -4 20 -1 16 16 -3 11 -1 18 4 15 5 -3 18 -2 29 2 10 4 39 1 63
-6 24 -8 49 -12 55 -11z m-5239 -54 c-3 -6 -1 -15 6 -19 6 -4 13 -19 13 -34 1
-14 8 -26 15 -26 11 0 14 -7 11 -26 0 -4 5 -11 13 -15 11 -8 11 -10 -1 -18
-11 -7 -11 -10 0 -17 7 -4 14 -3 17 4 6 20 19 13 26 -13 4 -14 11 -25 17 -25
6 0 7 -5 3 -12 -5 -8 0 -9 14 -6 12 4 22 2 22 -3 0 -5 -4 -9 -10 -9 -5 0 -7
-6 -4 -14 3 -8 1 -22 -4 -32 -15 -27 -4 -52 21 -47 17 4 12 -3 -18 -30 -22
-19 -43 -31 -46 -26 -3 5 -14 7 -25 3 -15 -5 -16 -4 -4 5 8 6 24 8 35 5 18 -6
18 -4 -4 16 -13 13 -26 19 -30 13 -3 -6 -20 -10 -38 -9 -17 1 -31 -1 -30 -4 2
-6 -8 -10 -23 -10 -7 0 -7 6 0 19 17 32 11 36 -11 7 -23 -29 -34 -33 -42 -12
-4 10 0 12 14 9 14 -4 19 0 19 17 0 17 -4 20 -21 15 -15 -5 -22 -2 -26 14 -3
12 -12 21 -20 21 -8 0 -12 4 -8 9 3 5 15 8 28 6 26 -5 52 28 40 50 -7 13 -12
13 -37 0 -26 -14 -28 -13 -22 2 6 16 6 16 -12 0 -22 -20 -35 -22 -29 -4 2 6
-3 17 -12 24 -10 7 -11 12 -4 13 8 0 10 14 8 39 -3 37 -2 39 20 35 13 -2 26 0
29 5 9 13 76 -10 76 -26 0 -7 4 -13 10 -13 5 0 7 6 4 14 -3 7 2 16 10 19 9 4
16 14 16 22 0 21 -25 46 -36 37 -5 -4 0 3 10 16 20 23 32 30 20 11z m6168 -4
c21 1 35 -2 32 -7 -3 -4 0 -8 5 -8 6 0 20 -9 31 -20 12 -12 26 -18 32 -14 6 4
8 3 5 -3 -4 -6 -2 -24 3 -42 8 -29 7 -30 -11 -21 -14 8 -19 7 -19 -1 0 -6 -7
-9 -15 -5 -8 3 -15 2 -15 -2 0 -4 -10 -13 -21 -21 -18 -11 -21 -11 -17 1 4 9
-3 13 -26 11 -17 -1 -33 -2 -36 -3 -3 -1 -8 -2 -11 -2 -3 0 -22 -3 -42 -8 -25
-5 -39 -4 -47 5 -11 13 -100 13 -121 -1 -8 -5 -9 -3 -4 6 6 10 0 12 -28 7 -34
-5 -53 6 -24 16 6 2 -5 3 -25 3 -24 -1 -38 -6 -38 -14 0 -7 -4 -10 -10 -7 -5
3 -10 15 -10 26 0 10 -4 19 -10 19 -5 0 -9 -5 -7 -11 1 -6 -4 -14 -12 -17 -10
-3 -12 0 -8 11 4 12 -1 15 -21 15 -44 -1 -48 1 -49 25 -2 19 -1 20 8 5 12 -22
33 -24 25 -3 -3 8 0 15 7 15 7 0 30 3 52 6 30 4 36 3 25 -5 -12 -9 -11 -11 8
-11 13 0 20 4 17 10 -11 19 27 24 41 6 11 -16 13 -16 19 3 3 12 11 21 16 21 6
0 7 -4 4 -10 -8 -13 1 -13 26 1 15 7 24 7 35 -2 11 -9 17 -9 29 1 8 7 15 9 15
5 0 -4 7 -2 15 5 8 6 19 9 25 5 5 -3 10 -1 10 5 0 8 9 10 23 7 12 -4 29 -2 37
3 7 5 21 5 29 0 9 -4 33 -7 53 -5z m-13649 -268 c21 13 52 11 70 -5 9 -8 17
-12 17 -7 0 4 11 0 25 -9 14 -9 30 -14 35 -11 5 3 14 -4 20 -15 6 -11 14 -19
18 -16 9 5 58 -20 55 -28 -2 -3 0 -7 5 -8 16 -5 52 -42 52 -55 0 -7 4 -13 10
-13 5 0 7 -7 4 -15 -4 -8 -2 -15 4 -15 5 0 7 -11 4 -25 -7 -40 -102 -71 -102
-34 0 5 -8 9 -19 9 -10 0 -24 7 -31 15 -7 8 -17 12 -22 9 -6 -4 -13 -2 -17 3
-3 5 -24 13 -46 18 -34 9 -44 18 -71 67 -18 32 -33 74 -34 95 -2 47 0 62 7 45
2 -6 10 -9 16 -5z m6132 -222 c28 -12 84 -30 125 -40 65 -16 150 -57 150 -73
0 -19 -182 28 -257 67 -22 11 -72 27 -112 37 -69 17 -79 27 -36 37 30 7 74 -2
130 -28z m-1275 -55 c0 -5 -7 -10 -15 -10 -8 0 -15 -7 -15 -16 0 -9 -5 -12
-12 -8 -7 5 -9 2 -5 -9 3 -9 -1 -18 -11 -22 -14 -5 -14 -7 -2 -16 13 -8 11
-12 -7 -26 -26 -18 -30 -41 -8 -49 8 -4 15 -15 15 -26 0 -10 4 -16 10 -13 6 3
7 -1 4 -9 -4 -11 -14 -14 -32 -9 -20 5 -24 3 -19 -9 3 -9 -3 -29 -13 -46 -10
-16 -16 -33 -12 -37 4 -5 -6 -5 -23 -1 -35 9 -45 17 -28 23 7 2 10 10 7 18 -3
8 4 20 15 27 12 7 21 20 21 28 0 13 -1 13 -10 0 -8 -12 -10 -10 -10 11 0 14 5
30 10 35 7 7 8 19 1 37 -7 19 -7 35 1 52 8 18 8 28 -1 39 -15 18 4 26 62 26
23 0 49 5 57 10 19 12 20 12 20 0z m5100 -50 c-12 -8 -10 -10 8 -10 13 0 20 4
17 10 -3 6 -2 10 4 10 6 0 13 -11 17 -25 3 -14 11 -22 16 -19 14 9 28 -15 28
-48 0 -15 4 -29 10 -33 5 -3 7 -12 4 -20 -3 -7 4 -22 15 -32 12 -9 21 -23 21
-30 0 -6 8 -14 19 -18 10 -3 21 -19 25 -36 3 -17 26 -50 53 -77 27 -26 47 -51
45 -56 -2 -5 2 -12 9 -16 16 -11 1 -73 -16 -66 -8 3 -12 0 -9 -7 10 -27 -105
-43 -126 -18 -12 14 -52 31 -60 26 -6 -4 -10 1 -10 9 0 10 -6 13 -17 9 -11 -4
-14 -3 -9 5 4 7 2 12 -3 12 -6 0 -10 4 -8 8 1 4 -11 20 -26 34 -15 14 -26 30
-25 36 3 11 -39 52 -54 52 -4 0 -8 7 -8 15 0 16 -5 17 -100 20 -36 0 -70 4
-76 8 -6 3 -23 -1 -39 -9 -29 -15 -42 -13 -30 5 3 6 11 9 16 6 16 -10 10 4
-11 25 -11 11 -24 20 -30 20 -5 0 -14 9 -20 20 -8 14 -17 19 -30 15 -10 -3
-21 -1 -25 5 -6 10 13 15 53 11 17 -1 22 2 16 11 -6 11 -5 11 8 0 14 -11 19
-8 38 18 12 16 28 30 36 30 8 0 14 7 14 16 0 11 5 14 17 10 10 -4 14 -4 10 0
-9 9 42 64 59 64 7 0 15 6 18 13 5 9 7 9 12 -1 5 -10 9 -10 20 -1 8 6 26 9 42
7 15 -3 41 -2 57 2 35 7 46 3 25 -10z m-11046 -114 c16 -17 33 -30 39 -28 6 2
14 -3 18 -10 7 -11 9 -11 9 0 0 7 5 10 10 7 6 -4 10 7 10 24 0 17 5 31 10 31
6 0 10 -7 10 -16 0 -8 4 -13 9 -9 12 7 22 -9 26 -40 1 -13 -4 -26 -12 -29 -8
-3 -11 -10 -8 -16 4 -6 11 -8 16 -5 5 4 9 -3 9 -15 0 -12 4 -19 10 -15 5 3 17
-6 26 -20 9 -13 20 -22 25 -19 5 3 9 -2 9 -10 0 -9 5 -16 11 -16 7 0 9 10 5
25 -3 14 -9 36 -12 50 -4 17 -2 25 7 25 21 -1 42 -20 78 -73 17 -26 49 -56 69
-66 20 -10 44 -27 53 -37 25 -29 72 -114 63 -114 -4 0 -3 -5 4 -12 7 -7 12
-36 12 -64 0 -43 3 -54 19 -59 11 -3 23 -16 27 -27 3 -12 16 -32 28 -45 l22
-23 13 45 c8 27 20 47 32 50 22 7 24 16 8 32 -13 13 -3 36 12 28 10 -7 11 2
11 51 0 29 2 31 29 28 28 -3 34 3 30 34 -1 6 3 12 9 12 5 0 10 7 10 15 0 8 4
15 9 15 5 0 12 11 15 25 4 14 11 25 17 25 6 0 8 9 4 20 -4 12 -2 20 5 20 6 0
8 5 5 10 -3 6 -2 10 4 10 11 0 47 60 43 73 -1 4 3 7 9 7 6 0 8 7 5 17 -4 9 -1
20 6 25 11 6 10 10 -1 17 -10 6 -10 10 -1 16 13 8 39 -22 40 -45 0 -31 34
-110 47 -110 15 0 18 56 4 93 -5 13 -12 41 -15 62 -4 21 -8 41 -11 43 -6 6 22
32 34 32 6 0 11 -7 11 -16 0 -10 6 -14 15 -10 10 3 15 -1 15 -12 0 -10 3 -13
8 -6 4 6 23 9 44 6 33 -4 38 -8 52 -52 9 -27 16 -54 16 -59 0 -21 -28 -11 -34
12 -6 22 -7 22 -18 2 -7 -11 -13 -48 -14 -82 -1 -38 -9 -71 -20 -88 -19 -29
-59 -49 -77 -39 -8 5 -8 2 1 -7 14 -16 16 -33 2 -24 -6 4 -10 -6 -10 -23 0
-38 -25 -49 -48 -21 -9 12 -33 37 -52 56 -27 28 -36 32 -38 20 -2 -9 6 -27 18
-39 11 -12 20 -29 18 -38 -1 -8 6 -32 15 -54 14 -32 15 -86 0 -86 -8 0 -40 35
-46 51 -3 9 -14 18 -25 21 -17 5 -18 2 -11 -38 5 -25 13 -53 19 -64 11 -21 7
-67 -8 -82 -19 -19 -36 -2 -104 101 l-18 26 0 -25 c0 -14 12 -56 26 -95 34
-93 39 -115 25 -115 -7 0 -9 -4 -6 -10 3 -5 1 -10 -4 -10 -18 0 -13 -66 7 -82
9 -9 41 -23 70 -33 29 -9 64 -27 78 -39 22 -18 24 -26 17 -56 l-8 -36 -76 11
c-63 8 -82 16 -113 43 -20 17 -32 32 -26 32 5 0 10 7 10 15 0 7 7 18 16 23 15
8 14 13 -11 46 -15 20 -25 36 -21 36 3 0 -3 9 -14 20 -11 11 -20 25 -20 31 0
8 -5 8 -15 -1 -18 -15 -12 -45 21 -112 13 -27 20 -48 15 -48 -4 0 -19 25 -32
55 -33 78 -43 75 -39 -12 1 -37 -1 -43 -19 -43 -25 0 -69 53 -91 111 l-16 44
30 0 c33 0 34 2 21 75 -3 19 -9 58 -12 85 -3 28 -12 54 -19 58 -7 4 -21 23
-30 43 -15 31 -19 33 -33 21 -27 -23 -48 -26 -70 -11 -16 12 -21 12 -21 2 -1
-8 -6 -6 -15 6 -14 19 -15 19 -15 -8 0 -19 4 -25 13 -20 7 5 7 2 -2 -10 -8 -9
-10 -16 -5 -15 18 3 34 -1 32 -8 -2 -5 2 -21 9 -38 34 -90 35 -95 17 -95 -18
0 -51 33 -47 47 2 6 -2 17 -10 24 -7 7 -11 23 -9 36 2 13 -1 24 -7 25 -29 3
-36 2 -36 -7 -1 -15 -24 -52 -25 -37 0 6 -5 12 -10 12 -6 0 -23 11 -37 24 -15
14 -30 23 -35 20 -4 -3 -8 0 -8 5 0 6 -5 11 -11 11 -5 0 -8 -4 -5 -8 3 -5 -13
-7 -34 -5 -39 4 -40 3 -42 -29 0 -18 -1 -39 -1 -45 1 -7 -3 -10 -8 -7 -17 10
-9 -9 9 -22 15 -12 15 -12 -5 -7 -22 5 -27 14 -24 41 1 6 -5 12 -14 12 -8 0
-15 7 -15 15 0 8 -7 15 -15 15 -8 0 -15 7 -15 15 0 19 -9 19 -34 0 -11 -8 -14
-15 -7 -15 7 0 9 -5 6 -10 -4 -6 -24 13 -45 42 -22 29 -44 59 -50 66 -6 6 -7
12 -3 12 4 0 1 5 -7 10 -10 6 -22 4 -38 -6 -22 -14 -24 -14 -29 5 -3 12 -9 21
-14 21 -5 0 -6 7 -3 15 4 9 -1 18 -12 22 -11 5 -20 14 -22 22 -2 8 -11 31 -22
53 -18 37 -18 38 1 38 10 0 19 3 20 8 0 4 3 34 5 67 5 82 27 141 51 137 10 -2
26 -13 36 -24 15 -18 21 -19 43 -10 13 7 27 20 30 29 9 29 37 77 48 85 19 13
60 -4 90 -36z m1356 -33 c0 17 32 -24 39 -50 10 -40 3 -71 -19 -78 -12 -4 -16
-12 -13 -28 3 -16 2 -18 -5 -8 -7 10 -14 11 -31 1 -32 -17 -56 -4 -75 38 -24
52 -19 118 10 137 13 8 30 12 38 9 10 -4 16 -1 16 7 0 8 9 3 20 -11 11 -14 20
-21 20 -17z m1632 -122 c4 -44 3 -57 -9 -69 -7 -7 -19 -10 -25 -6 -7 4 -10 4
-6 -1 16 -17 -34 -38 -89 -36 -30 0 -59 3 -64 7 -5 3 -9 1 -9 -5 0 -15 -60 6
-75 26 -10 13 -10 22 -3 31 8 9 7 11 -6 6 -12 -5 -15 -2 -10 10 3 9 15 16 25
16 10 0 19 5 19 11 0 6 7 9 15 5 8 -3 15 -1 15 4 0 6 9 10 20 10 12 0 30 8 40
18 15 14 34 18 70 17 28 -1 50 3 50 8 0 16 40 -34 42 -52z m1941 -17 c84 -19
102 -27 139 -62 54 -50 87 -197 57 -255 -37 -72 -100 -110 -183 -109 -160 0
-262 119 -240 282 8 59 36 105 83 137 40 27 51 28 144 7z m-3698 -129 c16 -49
31 -94 35 -100 21 -31 54 -185 40 -185 -6 0 -10 8 -10 18 0 10 -7 28 -16 40
-8 12 -12 27 -9 33 4 6 -2 13 -14 16 -12 3 -21 13 -21 23 0 10 -6 25 -14 32
-7 8 -17 24 -20 36 -4 12 -11 22 -15 22 -4 0 -8 10 -8 22 -1 13 -9 27 -17 33
-10 8 -14 24 -11 51 1 21 -1 44 -7 51 -6 8 -3 15 9 22 28 16 47 -12 78 -114z
m2395 47 c0 -51 -27 -135 -41 -126 -5 3 -7 10 -4 15 4 5 -4 9 -17 9 -18 0 -20
-2 -8 -10 11 -7 7 -9 -16 -7 -23 1 -30 6 -26 17 4 12 2 12 -8 3 -9 -8 -20 -8
-45 3 -18 7 -35 11 -38 8 -3 -3 -15 3 -27 14 -12 11 -29 19 -38 17 -9 -1 -11
0 -4 2 11 4 16 23 13 49 -1 9 9 10 34 4 38 -9 75 -3 75 11 0 5 5 9 10 9 6 0
10 -6 10 -13 0 -10 10 -12 32 -9 28 4 30 6 13 13 -19 7 -19 8 3 10 12 1 27 3
32 4 6 1 15 3 20 4 6 0 10 8 10 17 0 8 5 12 10 9 6 -3 10 -27 10 -53z m-4940
-139 c47 -3 97 -6 113 -6 15 0 25 -2 23 -5 -3 -2 0 -10 7 -18 30 -33 37 -44
37 -54 0 -6 -4 -8 -10 -5 -5 3 -10 -3 -10 -14 0 -11 -5 -23 -10 -26 -6 -3 -8
-27 -6 -53 3 -25 1 -51 -3 -57 -11 -14 -21 -56 -12 -50 5 2 8 -8 8 -23 0 -15
1 -54 2 -87 2 -33 0 -68 -4 -77 -4 -12 -3 -18 5 -18 10 0 10 -3 1 -14 -9 -10
-9 -16 -1 -21 8 -5 8 -10 0 -20 -8 -9 -8 -15 0 -20 7 -4 5 -11 -5 -21 -13 -13
-13 -18 1 -39 9 -13 13 -29 9 -34 -3 -6 -1 -20 5 -31 6 -11 7 -20 1 -20 -9 0
-26 -63 -24 -90 1 -8 -4 -18 -10 -22 -9 -6 -8 -11 3 -18 11 -8 7 -9 -15 -4
-55 11 -70 10 -67 -5 3 -12 0 -12 -12 -2 -11 9 -20 10 -36 1 -17 -9 -25 -8
-40 5 -13 12 -20 13 -25 5 -6 -9 -9 -9 -15 0 -5 9 -11 8 -21 -2 -17 -15 -40
-22 -38 -10 3 18 -2 32 -12 32 -5 0 -8 -4 -5 -9 11 -17 -37 -20 -52 -3 -13 16
-13 16 -8 0 4 -15 0 -16 -24 -11 -18 3 -30 1 -30 -5 0 -5 -7 -13 -16 -16 -12
-4 -15 -2 -10 9 4 13 2 14 -14 5 -27 -14 -43 -12 -36 5 6 16 -9 21 -18 6 -7
-11 -66 -20 -66 -10 0 4 -12 6 -27 5 -16 -2 -41 3 -57 11 -15 8 -25 10 -22 4
4 -6 3 -11 -3 -11 -5 0 -11 6 -14 13 -3 9 -10 7 -25 -6 -12 -11 -23 -14 -26
-9 -3 6 0 13 6 15 7 3 -6 6 -29 6 -35 1 -43 4 -43 20 0 11 -6 21 -12 23 -16 6
-19 71 -4 81 7 5 8 9 1 15 -15 10 -10 52 6 63 11 7 11 9 -3 9 -18 0 -22 36 -5
58 6 8 6 12 -1 12 -5 0 -8 9 -5 21 4 12 0 25 -8 30 -8 5 -9 9 -3 9 14 0 14 63
0 72 -8 5 -7 8 2 8 6 0 12 7 12 15 0 8 -6 15 -12 15 -9 0 -9 3 -3 8 10 6 11
19 5 40 -1 4 -1 22 0 41 1 19 -4 37 -11 42 -8 4 -10 11 -6 15 4 4 14 -1 22
-12 8 -10 15 -14 15 -8 0 5 -10 21 -22 34 -15 16 -18 25 -10 28 7 2 12 8 12
14 0 6 -7 8 -14 5 -10 -4 -13 -1 -9 9 3 7 0 14 -6 14 -6 0 -8 7 -5 15 4 8 1
15 -5 15 -6 0 -11 7 -11 15 0 8 3 15 8 15 4 0 12 10 17 23 6 12 16 21 23 20 7
-2 12 1 12 7 0 6 18 10 39 10 22 0 42 4 45 8 3 5 26 7 53 6 29 -2 50 2 55 9 6
9 8 9 8 0 0 -11 83 -9 118 2 8 3 10 0 6 -7 -5 -8 -2 -9 12 -3 10 4 64 10 119
12 55 2 101 6 103 7 1 2 15 1 30 -1 15 -3 65 -7 112 -10z m-1152 -46 c7 -5 28
-7 47 -4 25 4 33 2 29 -5 -5 -7 -1 -9 9 -5 12 4 21 -2 32 -23 9 -17 21 -30 28
-31 6 0 3 -4 -8 -9 -11 -5 -14 -9 -7 -9 10 -1 10 -6 -2 -23 -9 -12 -16 -33
-16 -45 0 -13 -6 -23 -12 -23 -10 0 -10 -2 -1 -8 19 -12 22 -144 4 -150 -10
-3 -8 -10 10 -24 14 -12 17 -18 7 -15 -11 4 -15 0 -14 -11 2 -9 8 -18 15 -20
9 -3 9 -7 0 -18 -9 -11 -8 -18 2 -30 26 -32 21 -93 -9 -95 -13 0 -14 -2 -2 -6
8 -4 21 -13 29 -20 12 -13 11 -14 -5 -11 -12 2 -19 -3 -19 -12 0 -9 8 -14 20
-12 11 2 16 -1 10 -5 -5 -4 -15 -23 -22 -41 -10 -28 -10 -33 2 -28 8 3 17 1
20 -4 4 -6 1 -10 -4 -10 -6 0 -11 -9 -11 -20 0 -11 -4 -20 -10 -20 -5 0 -10
-6 -10 -14 0 -23 -16 -27 -46 -11 -16 8 -25 15 -21 15 4 0 2 6 -5 14 -9 10
-15 10 -20 3 -9 -14 -19 -5 -22 20 -2 12 -10 17 -25 15 -23 -4 -27 8 -10 25 8
8 6 19 -7 39 -15 22 -16 28 -5 32 11 4 11 6 0 13 -10 6 -8 9 9 9 20 0 21 -3
12 -20 -7 -14 -7 -20 0 -20 5 0 10 4 10 9 0 5 3 16 6 25 5 12 0 16 -21 16 -16
0 -24 4 -20 11 4 6 14 8 22 4 13 -5 14 -3 3 10 -7 9 -19 14 -26 11 -7 -3 -16
-1 -19 4 -4 6 0 10 7 10 8 0 23 7 34 16 15 12 15 15 2 10 -9 -3 -19 2 -22 10
-10 27 -7 44 9 44 8 0 15 4 15 10 0 5 -7 7 -15 4 -8 -4 -15 -1 -15 5 0 6 5 11
10 11 6 0 10 7 10 15 0 8 -6 15 -12 15 -8 0 -9 3 -3 8 6 4 16 15 23 24 12 14
10 16 -10 12 -13 -2 -18 -2 -12 1 6 3 9 16 7 29 -3 13 0 33 6 45 8 15 9 21 1
21 -6 0 -8 5 -5 10 13 21 23 9 21 -25 -1 -21 3 -35 11 -35 8 0 9 9 3 30 -10
34 -10 35 -10 51 0 5 -4 8 -8 5 -14 -9 -32 10 -34 36 -2 27 -33 46 -41 24 -3
-6 -8 6 -12 27 -6 30 -4 42 11 58 11 12 17 24 15 28 -2 3 6 10 18 16 11 5 21
15 21 22 0 13 25 8 48 -10z m6360 -91 c31 -16 33 -19 18 -35 -9 -10 -28 -46
-42 -82 -14 -35 -30 -68 -35 -73 -5 -6 -9 -18 -9 -28 0 -10 -16 -49 -34 -87
-22 -43 -43 -107 -56 -172 -11 -57 -25 -119 -31 -136 -10 -32 -12 -33 -67 -33
-31 0 -88 -6 -127 -13 -88 -16 -106 -13 -102 18 1 14 6 27 10 31 12 12 8 21
-13 27 -18 4 -18 9 -9 39 7 18 25 62 41 98 17 36 39 91 49 123 10 32 27 70 37
85 11 15 23 37 26 50 4 12 18 34 32 47 13 13 24 37 25 52 0 25 1 26 9 8 7 -17
9 -15 9 12 1 19 12 44 28 63 l27 33 91 -5 c58 -3 102 -11 123 -22z m-2801 -58
c3 -29 9 -54 14 -56 5 -2 9 -12 9 -22 0 -20 39 -93 52 -98 4 -2 8 -9 8 -15 0
-12 107 -117 119 -117 5 0 18 -9 31 -20 31 -27 58 -25 70 4 11 29 35 43 69 40
27 -2 42 -18 76 -84 12 -25 63 -84 111 -132 153 -149 123 -136 330 -140 l179
-4 110 -65 c123 -72 228 -145 292 -203 35 -32 43 -45 43 -74 0 -37 -23 -72
-47 -72 -8 0 -11 -4 -8 -10 3 -6 -1 -7 -9 -4 -9 3 -16 2 -16 -3 0 -12 -26 -9
-63 5 -31 13 -81 -3 -70 -22 4 -6 -1 -5 -10 3 -10 8 -17 9 -17 3 0 -6 -8 -12
-17 -14 -14 -3 -5 -13 32 -41 28 -20 56 -35 63 -32 6 2 12 0 12 -4 0 -5 8 -7
18 -5 13 4 21 -6 35 -38 9 -24 17 -49 17 -57 0 -15 -39 -50 -57 -51 -6 0 -18
-6 -25 -12 -8 -7 -24 -19 -37 -26 -19 -11 -25 -11 -34 2 -18 24 -87 29 -106 7
-25 -28 -47 -31 -72 -11 -14 13 -30 18 -45 14 -21 -5 -24 -2 -30 35 -7 46 -22
62 -59 65 -20 1 -25 6 -25 29 0 15 -4 27 -9 27 -5 0 -8 14 -7 30 1 17 -2 30
-7 30 -4 0 -6 4 -3 9 5 8 -72 51 -90 51 -3 0 -32 16 -64 36 -70 43 -88 38 -57
-13 26 -44 32 -75 15 -71 -7 2 -13 -2 -14 -7 0 -12 -50 -22 -81 -17 -15 3 -26
16 -33 38 -7 19 -18 34 -26 34 -12 0 -13 12 -10 59 5 56 4 59 -22 71 -15 6
-38 14 -52 17 -14 2 -29 8 -34 14 -6 5 -25 9 -44 9 -26 0 -33 -4 -29 -15 5
-11 1 -12 -18 -5 -34 13 -57 3 -50 -21 9 -26 -9 -24 -24 4 -7 12 -26 29 -43
37 -43 22 -59 69 -45 137 7 36 16 53 29 56 10 3 18 2 18 -2 0 -3 18 -17 40
-31 22 -14 40 -28 40 -33 0 -4 4 -6 9 -2 6 3 14 -3 20 -12 6 -10 11 -12 11 -5
0 6 7 12 16 12 12 0 15 6 9 23 -16 52 -17 78 -1 102 21 31 21 59 1 51 -8 -3
-30 3 -48 13 -17 10 -48 27 -67 37 -50 27 -58 37 -65 77 -4 20 -16 43 -26 53
-10 9 -19 22 -19 29 0 19 -71 78 -117 99 -23 10 -44 25 -47 32 -3 8 -18 14
-33 14 -37 0 -50 10 -58 43 -4 15 -11 27 -15 27 -5 0 -5 12 -1 28 5 18 15 28
30 30 20 3 22 9 20 49 -2 33 1 47 13 54 9 5 19 27 23 50 9 51 15 45 22 -23z
m-1913 -202 c-4 -10 2 -12 22 -8 19 3 25 1 20 -7 -5 -7 1 -11 16 -12 15 -1 17
-3 7 -6 -11 -2 -15 -11 -12 -23 3 -11 11 -16 19 -13 9 3 14 -1 14 -12 0 -9 4
-14 9 -11 5 3 11 -5 13 -19 4 -19 1 -25 -11 -23 -8 2 -17 -5 -19 -14 -2 -13 1
-16 12 -12 9 3 16 1 16 -4 0 -6 -9 -14 -20 -17 -11 -3 -20 -11 -20 -16 0 -5 9
-9 20 -9 27 0 26 -33 -2 -60 -19 -17 -19 -20 -5 -20 10 0 20 7 23 15 4 8 10
15 15 15 5 0 3 -11 -3 -25 -6 -14 -15 -25 -20 -25 -4 0 -8 -5 -8 -11 0 -5 5
-7 10 -4 14 9 13 -8 -2 -23 -9 -9 -8 -12 6 -12 15 0 16 -2 3 -15 -9 -8 -18
-28 -22 -45 -5 -21 -13 -30 -26 -30 -11 0 -17 -4 -14 -10 3 -5 2 -10 -2 -10
-5 0 -16 12 -25 28 l-17 27 5 -40 5 -40 -15 33 c-8 17 -22 32 -30 32 -10 0
-12 7 -8 22 4 16 2 20 -10 15 -12 -4 -16 1 -16 21 0 15 5 33 11 40 12 15 17
52 9 66 -10 18 -11 76 -1 76 12 0 1 42 -14 51 -5 4 -1 11 9 18 18 10 18 10 0
11 -19 0 -19 0 -1 13 12 10 14 16 7 21 -20 12 -13 36 13 46 31 12 32 17 4 16
-12 -1 -24 5 -27 13 -3 10 2 13 22 9 14 -3 26 -1 26 4 0 5 4 7 10 3 5 -3 7
-12 4 -19z m7471 -229 c-2 -13 -8 -32 -13 -43 -23 -41 -31 -85 -22 -110 6 -14
10 -40 10 -57 0 -18 7 -43 16 -56 18 -25 8 -46 -18 -36 -10 4 -19 25 -23 56
-9 62 -27 63 -49 4 -10 -25 -21 -45 -25 -45 -17 0 -19 14 -6 41 14 26 14 28
-7 31 -34 5 -33 26 3 41 26 10 32 18 33 45 1 18 -2 32 -5 32 -12 0 -31 -29
-25 -39 7 -10 -23 -31 -43 -31 -25 0 -8 34 43 86 36 37 52 62 49 74 -5 20 18
41 25 22 3 -9 9 -8 24 3 26 18 36 12 33 -18z m135 -44 c35 -9 42 -10 68 -11
17 -2 22 -9 23 -29 2 -24 2 -25 6 -5 5 25 38 31 46 8 8 -19 -2 -54 -16 -59
-10 -3 -153 24 -204 39 -7 2 -13 19 -13 38 0 34 1 35 33 30 17 -3 43 -8 57
-11z m25 -92 l90 -18 6 -37 c6 -35 5 -36 -25 -37 -21 -1 -25 -3 -11 -6 30 -7
37 -18 29 -47 -5 -22 -11 -26 -43 -26 -21 0 -41 3 -45 7 -4 4 -15 8 -24 8 -63
5 -61 3 -60 46 l0 41 37 -6 c25 -4 31 -2 21 4 -8 5 -23 10 -32 10 -12 0 -16 5
-11 18 5 14 3 15 -8 5 -19 -18 -29 -16 -29 6 0 17 9 51 14 51 0 0 42 -9 91
-19z m1702 -73 c22 -29 49 -66 59 -83 10 -16 38 -50 61 -75 48 -52 102 -121
122 -158 10 -19 11 -26 1 -32 -7 -4 -9 -13 -6 -19 4 -6 11 -9 16 -6 4 2 10 -6
12 -20 3 -14 4 -25 2 -25 -8 0 -44 40 -44 49 0 5 -11 12 -24 15 -28 7 -79 74
-124 161 -18 33 -41 66 -52 73 -11 7 -20 18 -20 26 0 7 -10 21 -22 30 -19 14
-19 16 -4 11 16 -4 17 -3 7 9 -7 8 -19 12 -27 9 -8 -3 -14 0 -14 6 0 6 7 11
16 11 13 0 12 4 -5 26 -19 25 -20 44 -2 44 5 0 27 -24 48 -52z m-3753 -263
c21 -63 41 -115 45 -114 3 0 32 36 63 80 32 43 62 79 68 79 5 0 18 -28 29 -62
10 -35 40 -121 65 -191 l45 -128 -22 -8 c-12 -4 -39 -11 -59 -15 l-37 -7 -31
98 c-17 54 -33 99 -34 101 -2 1 -27 -29 -56 -68 -28 -38 -56 -70 -60 -70 -4 0
-15 19 -23 43 -9 23 -24 67 -35 97 l-20 54 -43 -87 c-24 -48 -48 -87 -54 -87
-16 0 -88 44 -92 56 -2 5 22 50 52 100 31 49 76 124 102 167 25 42 49 77 52
77 4 0 24 -52 45 -115z m-1349 36 c55 -11 111 -17 143 -13 66 6 126 -10 223
-60 98 -50 121 -74 113 -116 -4 -19 -13 -32 -21 -32 -13 0 -13 -3 -3 -15 16
-20 40 -19 40 1 0 13 7 15 43 9 23 -4 45 -13 50 -19 17 -26 -27 -153 -77 -218
-13 -18 -34 -56 -45 -85 -37 -96 -71 -151 -89 -148 -9 1 -20 -2 -24 -8 -4 -7
-15 -5 -32 6 -23 16 -25 16 -31 -3 -4 -11 -3 -29 0 -40 5 -15 2 -20 -12 -21
-16 -1 -16 -2 -1 -6 15 -4 15 -6 -3 -24 -10 -10 -28 -19 -39 -19 -11 0 -20 -4
-20 -10 0 -14 -23 -8 -36 9 -6 8 -18 12 -26 8 -9 -3 -21 0 -27 6 -8 8 -11 6
-11 -8 0 -15 -3 -16 -12 -7 -8 8 -15 9 -25 1 -10 -9 -13 -7 -13 5 0 10 -5 14
-11 10 -6 -3 -15 0 -20 7 -6 10 -9 8 -9 -8 0 -13 -4 -23 -10 -23 -5 0 -10 5
-10 11 0 6 -7 9 -15 5 -8 -3 -15 -1 -15 5 0 6 -6 9 -12 6 -7 -2 -19 3 -26 12
-12 14 -13 14 -8 -1 8 -26 -9 -22 -22 5 -7 14 -11 17 -11 7 -1 -20 -38 -52
-46 -40 -4 6 -12 10 -18 9 -9 0 -9 -2 1 -6 6 -2 12 -8 12 -13 0 -11 -64 7 -68
19 -2 5 -12 6 -24 3 -13 -3 -19 -1 -15 5 4 6 -8 10 -28 11 -19 1 -45 8 -57 16
-13 8 -37 17 -54 21 -17 3 -41 15 -52 25 -12 11 -27 17 -35 14 -17 -6 -39 19
-35 40 2 8 -6 22 -17 30 -16 13 -17 15 -2 10 9 -3 17 -1 17 5 0 6 -5 11 -11
11 -6 0 -8 9 -4 20 4 12 2 20 -4 20 -7 0 -9 14 -5 38 12 73 13 155 2 175 -13
25 -39 123 -41 156 -2 21 7 26 98 57 55 18 108 33 119 33 15 1 84 47 106 71 7
8 63 44 80 52 27 12 93 8 185 -11z m1717 -34 c25 -19 54 -53 69 -83 l26 -52
27 35 c34 42 91 81 132 89 36 7 40 1 50 -76 6 -43 4 -50 -10 -50 -37 0 -98
-42 -127 -87 -24 -39 -29 -57 -29 -111 l0 -63 -47 6 c-95 12 -89 5 -85 93 5
102 -17 159 -77 196 -23 15 -41 29 -41 31 0 13 53 105 60 105 5 0 28 -15 52
-33z m566 -84 l3 -53 -49 0 c-27 0 -52 -3 -56 -7 -3 -4 21 -32 54 -63 52 -49
60 -60 60 -92 0 -75 -87 -136 -200 -141 l-55 -2 0 50 0 50 47 3 c73 5 79 24
19 68 -27 20 -58 52 -68 71 -17 33 -17 35 2 70 30 56 133 105 210 100 29 -2
30 -4 33 -54z m212 12 c63 -8 137 -16 165 -17 56 -3 62 -13 50 -75 l-6 -36
-64 6 -64 6 -5 -42 c-3 -23 -11 -91 -18 -152 l-13 -110 -65 3 c-36 2 -68 6
-71 10 -4 4 1 74 10 155 10 82 15 150 12 151 -3 2 -32 7 -65 11 l-58 7 7 46
c9 61 12 64 43 58 15 -3 79 -12 142 -21z m377 -39 c6 -6 -35 -407 -43 -415 -2
-2 -34 0 -71 5 -59 8 -68 12 -67 29 4 53 36 353 40 374 5 23 8 23 70 18 36 -2
68 -8 71 -11z m301 -88 l3 -57 -38 -7 c-77 -14 -123 -52 -123 -101 0 -44 35
-80 86 -88 66 -11 65 -10 62 -67 -3 -50 -5 -53 -31 -56 -45 -5 -158 34 -201
69 -131 109 -60 285 141 350 89 28 97 25 101 -43z m320 -40 c54 -91 140 -248
159 -290 12 -26 10 -28 -42 -57 -30 -17 -59 -31 -64 -31 -5 0 -17 20 -28 45
l-18 45 -88 0 -88 0 -20 -35 c-12 -19 -24 -35 -27 -35 -15 0 -102 64 -102 75
0 6 50 84 111 171 118 168 137 194 150 194 4 0 30 -37 57 -82z m2304 -243 c23
-19 73 -46 112 -61 124 -47 217 -98 376 -205 148 -100 299 -209 329 -237 109
-103 305 -218 506 -296 39 -15 90 -35 115 -46 25 -10 88 -35 140 -56 52 -20
109 -42 127 -50 39 -18 78 -18 95 -1 7 8 28 16 46 20 25 5 37 2 53 -14 21 -21
18 -42 -6 -33 -10 4 -18 -3 -25 -20 -5 -15 -17 -29 -25 -32 -15 -6 -21 -44 -7
-44 5 0 18 11 30 24 36 43 78 48 400 49 85 0 168 -8 323 -32 39 -6 76 -23 125
-53 76 -49 128 -72 189 -82 107 -19 260 -74 277 -100 25 -36 -8 -92 -46 -80
-11 4 -30 8 -41 8 -11 1 -25 4 -31 8 -6 4 -22 1 -37 -7 -24 -12 -27 -12 -27 1
0 11 -6 13 -22 8 -13 -4 -25 -10 -28 -14 -8 -12 -71 -4 -80 10 -4 7 -12 10
-18 6 -6 -3 -13 -2 -17 4 -3 5 -26 15 -50 21 -25 6 -50 17 -56 25 -6 8 -28 14
-48 13 -33 0 -34 -1 -12 -10 13 -5 45 -25 71 -44 26 -19 57 -39 71 -45 13 -6
42 -21 64 -35 22 -13 49 -28 60 -34 35 -17 158 -50 210 -57 28 -4 93 -26 145
-49 52 -23 116 -50 142 -59 52 -19 132 -76 148 -106 14 -27 12 -60 -5 -66 -8
-3 -60 9 -117 27 -118 37 -102 33 -196 53 -40 9 -85 22 -101 30 -34 18 -180
56 -214 56 -36 0 -87 -20 -87 -34 0 -20 30 -41 85 -61 77 -27 285 -130 340
-167 28 -18 73 -46 100 -62 106 -62 167 -131 151 -171 -3 -8 -14 -15 -24 -15
-24 0 -123 40 -140 57 -7 7 -18 13 -23 13 -6 0 -25 11 -42 24 -18 13 -45 26
-60 30 -30 7 -178 77 -200 94 -6 5 -62 35 -123 66 -96 48 -115 55 -138 46 -14
-5 -26 -15 -26 -23 0 -14 87 -100 190 -187 211 -178 282 -262 251 -293 -16
-16 -83 -11 -97 7 -6 9 -16 16 -21 16 -17 0 -113 83 -113 97 0 7 -7 13 -16 13
-8 0 -30 11 -48 25 -18 14 -37 25 -43 25 -6 0 -39 27 -73 60 -34 33 -66 60
-69 60 -4 0 -17 9 -30 21 -12 12 -25 18 -28 15 -3 -3 -12 2 -19 12 -7 9 -15
14 -18 11 -8 -8 63 -143 117 -223 22 -33 46 -80 54 -105 13 -43 12 -47 -7 -63
-17 -14 -26 -15 -48 -6 -26 11 -132 115 -132 131 0 4 -28 43 -63 85 -34 42
-69 92 -76 110 -7 17 -16 32 -20 32 -4 0 -15 16 -25 35 -11 19 -22 35 -26 35
-5 0 -11 11 -14 25 -8 30 -66 87 -83 80 -7 -2 -13 0 -13 6 0 5 -16 17 -35 25
-20 8 -39 21 -42 30 -3 8 -11 13 -18 10 -6 -2 -18 4 -26 15 -7 10 -20 19 -28
19 -7 0 -21 8 -30 18 -9 10 -23 21 -31 25 -23 11 -51 30 -74 53 -12 12 -29 23
-37 26 -11 4 -12 9 -1 27 17 30 15 36 -13 39 -14 1 -40 9 -58 19 -18 9 -45 16
-62 16 -38 0 -52 11 -60 47 -3 16 -13 31 -22 34 -13 5 -15 20 -9 101 4 52 5
95 3 95 -16 0 -92 -186 -79 -194 4 -2 22 -7 40 -11 21 -4 37 -16 44 -30 12
-26 4 -60 -11 -50 -6 3 -8 12 -5 19 3 7 -3 16 -13 20 -10 3 -23 9 -30 12 -6 3
-13 -3 -15 -13 -4 -15 -7 -14 -18 9 -7 14 -18 24 -25 22 -7 -3 -16 -1 -20 5
-3 6 -17 11 -31 11 -14 0 -34 4 -44 10 -10 5 -33 12 -51 14 -49 7 -173 40
-179 48 -3 4 -19 9 -35 12 -17 3 -34 12 -40 19 -12 16 -45 31 -63 28 -8 -1
-20 3 -27 9 -8 7 -19 9 -25 5 -7 -4 -10 0 -8 11 2 13 -2 18 -14 16 -9 -1 -19
2 -23 8 -3 5 -17 10 -30 10 -13 0 -30 7 -39 15 -9 9 -17 11 -21 5 -3 -5 -13
-10 -22 -10 -13 0 -14 2 -2 17 9 11 10 14 2 9 -13 -7 -72 6 -122 26 -14 6 -33
10 -43 9 -9 -1 -19 3 -23 9 -3 5 -15 10 -26 10 -10 0 -19 4 -19 9 0 5 -15 10
-32 10 -52 0 -78 5 -78 13 0 4 -6 5 -14 2 -8 -3 -17 -1 -21 5 -3 6 -11 11 -16
11 -6 0 -7 -6 -3 -12 6 -10 5 -10 -8 -1 -8 7 -27 14 -42 15 -14 1 -26 6 -26
10 0 4 -12 8 -26 8 -17 0 -23 4 -18 13 6 9 3 8 -8 -1 -14 -11 -21 -10 -47 9
-17 12 -34 20 -37 16 -4 -3 -19 3 -35 14 -15 11 -42 21 -59 22 -16 1 -30 6
-30 10 0 5 -4 5 -10 2 -5 -3 -10 -1 -10 4 0 6 -3 10 -7 9 -12 -2 -63 24 -63
32 0 4 -11 5 -25 2 -15 -2 -25 0 -25 7 0 6 -9 11 -20 11 -12 0 -20 7 -20 16 0
14 -3 14 -15 4 -12 -10 -15 -10 -15 0 0 7 -7 10 -15 6 -8 -3 -15 -2 -15 3 0 4
-20 18 -45 30 -25 12 -45 27 -45 32 0 5 -5 9 -12 9 -6 0 -26 12 -45 26 -21 16
-40 23 -52 19 -34 -11 -51 47 -20 69 17 11 17 13 -2 24 -11 7 -19 8 -19 2 0
-5 -5 -10 -11 -10 -7 0 -8 7 -4 18 12 31 10 35 -13 41 -25 6 -56 73 -47 99 3
8 -4 16 -16 19 -16 4 -17 8 -7 14 10 7 9 9 -4 9 -9 0 -20 9 -23 20 -3 11 -10
20 -14 20 -5 0 -11 19 -14 41 -5 40 -4 43 56 101 34 32 87 74 118 93 57 35
129 124 150 185 14 39 32 38 81 -5z m-4337 -206 c121 -22 262 -47 314 -55 51
-8 96 -16 100 -18 3 -2 29 -6 56 -9 28 -3 71 -10 96 -16 25 -6 57 -8 71 -6 14
3 41 -2 61 -10 44 -18 342 -73 712 -131 160 -25 310 -49 335 -53 53 -8 51 9
15 -191 -26 -139 -118 -516 -129 -527 -9 -10 -131 -3 -251 13 -137 19 -607 98
-735 124 -52 10 -138 26 -190 34 -91 15 -424 80 -560 110 -139 31 -223 55
-232 68 -14 22 0 154 46 425 43 254 49 283 64 283 4 0 107 -18 227 -41z m2524
-110 c-10 -6 -8 -9 9 -9 12 0 22 5 22 11 0 8 4 8 13 2 19 -16 67 -22 67 -9 0
6 4 4 10 -4 5 -8 12 -12 15 -8 3 3 18 -5 32 -18 26 -24 50 -33 38 -14 -3 6 3
10 14 10 12 0 21 -4 21 -10 0 -5 8 -10 18 -10 13 0 14 -2 4 -9 -11 -7 -11 -9
2 -14 9 -4 15 -3 15 1 -3 20 3 21 23 2 12 -11 25 -20 30 -20 14 0 8 18 -8 24
-9 4 -14 9 -10 13 3 3 15 -2 26 -12 19 -18 20 -17 20 1 0 15 2 16 9 5 5 -8 7
-20 4 -28 -3 -7 0 -13 6 -13 6 0 11 7 11 16 0 14 3 14 15 4 9 -7 18 -10 22 -6
3 3 2 6 -4 6 -5 0 -10 7 -10 16 0 14 2 14 14 -2 18 -25 17 -29 -14 -41 -26
-10 -24 -11 21 -10 37 0 54 -5 65 -19 9 -11 24 -18 34 -16 15 3 18 0 13 -16
-6 -17 -2 -20 19 -18 14 0 25 6 25 11 0 6 6 -1 13 -15 7 -13 26 -31 42 -40 17
-8 33 -19 36 -24 4 -4 10 -3 13 3 11 17 30 12 48 -13 13 -18 14 -23 2 -23 -8
0 -14 6 -14 14 0 20 -17 16 -23 -6 -5 -20 17 -36 34 -25 5 3 9 0 9 -5 0 -6 11
-11 24 -11 13 0 29 -7 36 -15 11 -13 15 -13 22 -3 6 9 8 6 6 -9 -2 -15 9 -33
37 -57 22 -20 43 -36 48 -36 4 0 7 -5 7 -11 0 -5 -4 -8 -9 -4 -5 3 -13 1 -16
-5 -4 -6 -3 -9 2 -8 10 4 53 -38 53 -52 0 -5 5 -10 10 -10 6 0 10 8 10 18 0
13 2 14 9 4 4 -8 12 -13 17 -13 5 1 9 -12 9 -28 0 -36 13 -51 25 -31 7 11 10
7 10 -15 l1 -30 14 25 c16 28 21 9 5 -20 -10 -18 -9 -18 23 -5 29 12 34 12 34
-1 0 -9 -7 -12 -19 -8 -20 6 -25 -12 -5 -19 8 -3 6 -9 -7 -19 -14 -11 -16 -17
-7 -23 8 -4 21 1 32 14 26 27 30 27 16 -4 -7 -14 -20 -25 -29 -25 -11 0 -15
-5 -12 -15 4 -8 17 -15 31 -15 16 0 22 4 18 13 -4 6 0 4 9 -7 8 -10 19 -15 25
-11 6 3 11 -1 11 -11 0 -11 -6 -15 -20 -11 -11 3 -20 1 -20 -4 0 -10 15 -11
47 -3 13 4 20 11 16 19 -3 10 7 16 34 21 21 4 45 16 55 26 10 12 34 21 64 24
27 2 53 9 58 14 6 6 38 10 73 10 40 0 63 4 63 11 0 8 4 9 13 0 8 -6 16 -9 18
-6 3 2 35 6 73 8 61 4 74 2 124 -24 65 -35 110 -75 90 -81 -10 -4 -9 -9 3 -21
9 -9 20 -13 23 -9 4 4 5 -7 2 -23 -2 -17 -5 -36 -5 -43 -1 -7 -6 -10 -11 -7
-6 4 -21 -3 -33 -14 -12 -11 -31 -29 -43 -38 -32 -28 -39 -69 -14 -90 11 -10
25 -19 30 -19 6 -1 18 -2 28 -4 11 -1 13 -3 4 -7 -9 -3 -4 -10 13 -19 15 -8
31 -11 36 -8 5 3 9 1 9 -5 0 -11 56 15 65 30 4 5 10 7 15 4 4 -3 7 3 6 13 0 9
5 16 12 14 6 -1 12 3 12 9 0 7 10 9 25 7 14 -3 25 -1 25 3 0 5 7 9 15 9 8 0
12 6 9 14 -3 8 0 17 7 22 8 4 10 3 5 -4 -5 -8 0 -12 13 -12 12 0 21 5 21 11 0
5 4 8 9 5 13 -8 114 15 124 28 6 8 10 7 14 -1 3 -10 8 -9 19 2 10 9 26 12 47
9 49 -8 361 -83 462 -111 146 -41 193 -51 337 -73 128 -19 178 -34 288 -89 42
-21 61 -62 41 -93 -11 -17 -11 -22 1 -29 7 -5 19 -7 26 -4 6 2 12 1 12 -4 0
-4 11 -13 24 -19 27 -12 72 4 96 33 18 22 29 19 90 -20 30 -20 84 -49 120 -66
36 -17 74 -35 85 -40 11 -6 40 -27 65 -49 42 -36 44 -39 31 -63 -8 -15 -17
-26 -20 -25 -32 3 -71 -4 -71 -15 0 -9 -23 -12 -82 -11 -46 1 -87 -2 -93 -6
-19 -14 -55 -18 -55 -7 0 8 -3 8 -8 -1 -12 -18 -82 -28 -82 -12 0 7 -8 10 -20
7 -10 -3 -18 0 -17 5 3 17 -54 33 -63 18 -5 -9 -9 -9 -14 -1 -11 17 -26 13
-26 -6 -1 -16 -2 -16 -15 1 -14 18 -20 15 -16 -8 2 -12 -20 -37 -29 -31 -4 3
-19 -4 -33 -15 -27 -21 -77 -27 -77 -9 0 6 -9 8 -20 4 -13 -4 -31 1 -49 14
-16 12 -34 21 -40 21 -17 0 -83 38 -73 42 5 1 -9 19 -30 39 -21 20 -38 33 -38
29 0 -4 -12 -5 -27 -3 -16 3 -23 1 -17 -4 17 -12 5 -73 -15 -73 -14 0 -14 -2
-1 -10 13 -8 13 -10 -1 -10 -10 0 -20 -11 -23 -26 -4 -16 -12 -24 -21 -21 -7
3 -19 -1 -25 -8 -14 -16 -44 -15 -62 3 -7 7 -22 12 -35 12 -13 0 -23 4 -23 10
0 8 -66 26 -82 22 -5 -1 -8 3 -8 10 0 6 -9 3 -21 -8 -17 -16 -22 -16 -29 -4
-8 13 -10 12 -10 -3 0 -10 -12 -22 -26 -27 -16 -7 -24 -16 -21 -24 3 -8 -1
-17 -9 -20 -16 -6 -19 -36 -4 -36 6 0 10 -6 9 -12 -3 -24 13 -58 27 -58 8 0
14 -5 14 -11 0 -6 7 -8 16 -5 10 4 14 1 12 -6 -6 -16 16 -38 35 -38 29 0 46
12 40 28 -3 11 -2 13 4 6 4 -6 17 -11 28 -11 11 0 23 5 27 11 5 8 8 7 8 -1 0
-8 15 -13 40 -13 25 0 40 -5 40 -12 0 -10 3 -9 9 1 5 8 16 11 30 6 15 -5 21
-2 21 9 0 9 5 16 11 16 5 0 7 -6 3 -12 -6 -9 -3 -9 9 0 9 8 21 11 27 7 5 -3
10 0 10 7 0 11 2 11 9 0 5 -9 35 -14 87 -16 43 -2 88 -7 98 -11 11 -5 17 -5
14 1 -8 13 65 16 96 4 21 -8 26 -7 26 6 0 11 5 12 18 6 18 -10 43 -5 53 10 3
5 23 1 44 -8 26 -11 40 -12 45 -5 9 16 66 3 86 -20 9 -10 21 -16 25 -13 5 3 9
0 9 -6 0 -6 5 -8 10 -5 6 3 10 -1 10 -10 0 -8 7 -18 15 -21 8 -4 15 -14 15
-24 0 -23 17 -35 23 -18 2 7 6 -4 8 -24 3 -20 2 -35 -2 -32 -9 5 -21 -75 -13
-88 4 -7 2 -8 -4 -4 -8 5 -12 -2 -12 -18 0 -16 -6 -26 -15 -26 -8 0 -15 -5
-15 -11 0 -6 -7 -9 -15 -5 -8 3 -15 1 -15 -3 0 -5 -28 -9 -62 -9 -100 1 -115
-1 -99 -11 8 -5 9 -11 3 -15 -5 -3 -12 0 -15 8 -6 16 -137 12 -148 -5 -4 -7
-9 -8 -13 -1 -7 11 -86 10 -106 -3 -7 -5 -34 -9 -59 -10 -25 -1 -40 0 -33 3 6
2 12 8 12 14 0 6 -6 8 -12 5 -50 -18 -61 -19 -55 -4 4 11 0 13 -16 9 -12 -3
-16 -7 -9 -10 30 -10 6 -17 -66 -20 -87 -3 -134 -10 -128 -20 5 -9 -71 -9 -79
-1 -9 10 -89 -8 -93 -20 -2 -6 -18 -11 -36 -11 -18 0 -36 -3 -40 -7 -14 -14
-103 -30 -125 -22 -12 5 -21 4 -21 -1 0 -6 -8 -10 -17 -10 -15 0 -16 2 -3 10
13 8 13 10 -2 10 -27 0 -68 22 -68 37 0 7 -4 13 -9 13 -11 0 -32 56 -24 64 3
3 1 11 -5 18 -6 8 -8 38 -5 73 7 86 7 88 20 111 7 12 9 25 5 29 -21 20 -4 175
19 175 4 0 11 9 14 20 3 11 13 20 22 20 10 0 13 6 9 16 -6 16 -6 16 43 -3 10
-5 13 3 9 35 -2 23 0 42 4 42 19 0 5 26 -28 55 -25 22 -36 41 -36 59 0 32 -27
110 -28 81 0 -16 -2 -17 -10 -5 -25 39 -47 -73 -29 -142 5 -19 4 -28 -4 -29
-9 0 -8 -2 1 -6 22 -9 11 -73 -13 -73 -8 0 -17 -9 -20 -21 -6 -17 -14 -20 -49
-18 -23 2 -47 0 -53 -4 -5 -4 -18 2 -28 13 -10 11 -26 20 -37 20 -10 0 -18 4
-18 10 0 5 -11 12 -25 16 -14 3 -25 9 -25 13 0 9 -122 -2 -139 -13 -21 -13
-81 -17 -81 -5 0 6 -6 4 -13 -3 -8 -7 -30 -13 -50 -12 -21 1 -37 -2 -37 -6 0
-14 -63 -33 -110 -34 -29 -1 -50 5 -60 15 -8 8 -41 26 -72 39 -32 13 -58 27
-58 32 0 4 -6 8 -14 8 -7 0 -19 7 -26 15 -8 10 -21 13 -33 9 -13 -4 -17 -2
-13 5 4 6 0 11 -8 11 -9 0 -16 5 -16 11 0 6 -7 8 -16 5 -11 -4 -18 1 -21 15
-3 12 -11 18 -19 15 -8 -3 -14 -1 -14 3 0 5 6 12 13 14 7 3 5 6 -5 6 -10 1
-18 6 -18 11 0 6 -12 28 -26 50 -23 35 -29 60 -33 133 -1 11 -6 15 -13 11 -7
-5 -9 0 -6 14 8 30 -28 36 -69 11 -18 -11 -33 -25 -33 -30 0 -6 -6 -9 -12 -8
-30 4 -40 -2 -34 -17 4 -11 2 -15 -8 -11 -8 3 -19 -5 -26 -19 -7 -13 -21 -26
-32 -30 -10 -3 -18 -9 -18 -14 0 -5 -20 -29 -44 -54 -24 -25 -41 -48 -38 -51
3 -3 -2 -5 -11 -5 -10 0 -17 -8 -17 -20 0 -11 -7 -23 -15 -26 -8 -4 -13 -10
-10 -14 3 -5 1 -11 -3 -14 -12 -7 -7 -73 7 -90 6 -7 9 -21 5 -30 -4 -11 -1
-16 10 -16 9 0 13 -6 10 -14 -5 -13 31 -56 47 -56 4 0 5 -9 2 -20 -4 -14 0
-20 11 -20 10 0 15 -4 12 -8 -3 -5 8 -16 25 -26 16 -9 27 -22 24 -27 -4 -5 -3
-9 2 -9 4 0 14 -4 22 -9 13 -8 13 -12 0 -27 -13 -16 -12 -17 8 -12 16 4 20 2
16 -8 -3 -8 1 -14 10 -14 8 0 21 -7 28 -16 12 -15 11 -16 -9 -10 -13 4 -22 3
-22 -3 0 -5 10 -11 23 -13 15 -2 21 -9 19 -20 -2 -10 1 -18 5 -18 16 0 14
-140 -2 -172 -8 -17 -15 -38 -15 -45 0 -8 -6 -13 -12 -10 -7 2 -20 -3 -28 -12
-8 -9 -24 -16 -35 -17 -11 -1 -27 -2 -35 -4 -36 -6 -70 1 -70 15 0 9 -6 12
-15 9 -8 -4 -15 -2 -15 2 0 14 -54 14 -62 1 -5 -8 -8 -7 -8 4 0 8 6 21 13 28
10 11 10 13 0 7 -9 -5 -13 0 -13 13 0 12 -4 21 -10 21 -5 0 -7 -6 -4 -14 3 -8
1 -17 -5 -21 -7 -3 -11 3 -11 15 0 17 -4 20 -22 16 -13 -3 -17 -3 -10 0 20 9
14 32 -10 36 -16 2 -24 11 -26 28 -2 13 -11 30 -20 37 -14 10 -15 14 -3 22 17
11 -3 25 -24 17 -8 -3 -17 -1 -20 4 -4 6 0 10 7 10 7 1 2 7 -12 15 -22 13 -23
14 -5 15 l20 1 -20 8 c-11 5 -23 7 -28 4 -4 -2 -10 3 -13 11 -3 9 -12 16 -19
16 -7 0 -18 7 -25 15 -14 17 -80 21 -80 4 0 -6 -6 -9 -14 -6 -8 3 -16 1 -18
-5 -2 -6 -15 -12 -29 -13 -13 -1 -24 -6 -25 -11 -1 -17 -27 -64 -36 -64 -4 0
-8 -7 -8 -15 0 -9 -6 -12 -16 -8 -13 5 -15 2 -10 -15 6 -18 4 -21 -11 -15 -10
3 -15 3 -11 -1 7 -9 -28 -82 -44 -92 -6 -4 -5 -10 3 -15 10 -6 11 -9 2 -9 -7
0 -13 -9 -13 -21 0 -11 -3 -18 -7 -16 -5 3 -16 -6 -26 -19 -17 -22 -17 -25 -1
-31 15 -5 15 -7 0 -15 -9 -5 -14 -13 -11 -18 3 -5 1 -11 -5 -15 -5 -3 -10 -15
-10 -25 0 -10 -5 -22 -12 -26 -8 -5 -9 -2 -5 11 9 22 -9 46 -29 38 -8 -3 -14
-17 -15 -32 0 -14 -3 -20 -6 -13 -2 6 -13 12 -23 12 -10 0 -22 5 -25 11 -4 6
-13 8 -21 5 -9 -4 -14 2 -14 17 0 12 -4 18 -8 12 -15 -21 -35 -17 -29 6 3 13
0 34 -7 48 -22 43 -36 114 -24 128 5 7 7 21 3 33 -5 14 -2 20 9 20 9 0 16 4
16 10 0 5 -8 7 -17 3 -17 -6 -17 -5 0 14 10 11 15 27 11 37 -4 11 -1 16 12 16
13 0 15 3 7 11 -7 7 -8 20 -4 33 5 11 7 36 6 54 -2 17 1 32 6 32 14 0 11 17
-7 34 -14 15 -14 16 0 16 12 0 16 11 16 50 0 38 4 50 15 50 18 0 19 12 3 28
-9 9 -9 12 2 12 13 0 13 2 0 10 -11 7 -12 12 -3 21 8 8 6 16 -8 30 -11 11 -17
24 -14 30 4 5 1 8 -7 7 -12 -3 -14 2 -17 45 0 10 -6 15 -12 12 -6 -4 -24 7
-41 24 -17 17 -34 29 -38 26 -5 -3 -29 8 -53 25 -25 16 -50 30 -56 30 -6 0
-11 4 -11 8 0 4 -13 13 -30 19 -28 10 -30 15 -30 62 0 54 56 253 83 294 20 30
60 40 81 18 10 -10 16 -11 16 -3 0 8 7 9 26 2 32 -13 37 -12 29 0 -3 6 -1 10
4 10 6 0 11 -4 11 -9 0 -15 46 2 75 27 14 12 30 20 35 17 6 -4 10 -1 10 4 0 6
6 11 14 11 18 0 28 40 14 57 -8 10 -6 13 6 13 13 0 16 5 11 20 -4 12 0 31 9
45 20 31 20 36 -1 28 -14 -5 -16 -4 -8 8 6 8 10 26 9 42 -1 19 4 27 15 27 14
0 14 2 1 10 -13 9 -13 11 0 20 11 7 12 12 3 18 -13 8 -13 29 0 49 4 7 9 33 11
58 1 25 7 50 13 56 6 6 9 18 6 27 -4 10 -2 13 5 8 8 -5 12 1 13 16 1 19 3 18
9 -7 l8 -30 1 31 c1 28 4 31 30 30 16 -1 27 -5 24 -10 -3 -4 4 -5 16 -1 12 3
21 2 21 -4 0 -6 11 -20 24 -33 13 -13 29 -41 36 -63 19 -60 44 -102 58 -97 7
2 10 -2 6 -12 -3 -9 -1 -22 5 -30 6 -7 9 -21 5 -30 -3 -9 -2 -16 3 -16 15 0
45 -60 38 -78 -3 -9 -3 -13 1 -9 8 7 33 -36 40 -68 2 -11 8 -21 14 -23 5 -2
10 -10 10 -18 0 -9 5 -12 10 -9 9 5 14 -7 11 -27 0 -3 7 -5 17 -3 9 1 29 -6
43 -16 27 -19 135 -34 144 -20 6 11 65 0 65 -12 0 -6 11 0 25 13 14 13 25 19
25 13 0 -12 79 -11 99 1 7 5 16 5 20 0 8 -11 32 -11 50 0 11 7 11 10 0 17 -15
9 14 14 59 10 19 -2 22 3 22 38 0 22 3 47 6 56 4 10 2 15 -7 13 -8 -2 -15 7
-17 20 -2 12 -9 22 -15 22 -9 0 -9 2 0 8 8 5 3 22 -17 60 -15 29 -31 53 -34
52 -4 -1 -12 1 -19 3 -6 3 -2 6 11 6 21 1 33 21 11 21 -16 0 -41 29 -34 40 3
6 -1 13 -10 17 -10 3 -21 0 -25 -7 -6 -9 -9 -4 -12 16 -2 20 -8 29 -20 28 -10
-1 -16 2 -13 6 3 5 1 11 -5 15 -15 9 -12 25 6 25 8 0 12 5 9 10 -4 6 -15 8
-24 5 -10 -3 -24 1 -31 10 -11 13 -10 14 4 9 9 -3 16 -1 16 5 0 6 -13 14 -29
17 -20 4 -28 11 -24 20 3 9 -2 14 -16 14 -27 0 -27 16 0 23 l20 6 -20 20 c-12
12 -25 21 -31 21 -5 0 -10 7 -10 15 0 11 -7 14 -24 9 -22 -5 -23 -3 -21 35 l2
41 -18 -22 c-17 -19 -21 -20 -37 -6 -9 9 -26 18 -37 21 -15 3 -13 5 8 6 16 0
26 5 23 9 -8 13 -65 2 -62 -12 2 -6 1 -8 -1 -3 -3 4 -11 7 -19 7 -8 0 -14 10
-14 25 0 14 -4 25 -10 25 -5 0 -10 -10 -10 -22 0 -20 -3 -19 -21 11 -16 27
-23 31 -30 20 -6 -10 -9 -6 -10 16 -1 22 -3 24 -6 8 -3 -17 -33 -42 -37 -31
-8 21 -25 43 -37 46 -11 4 -12 2 -1 -9 6 -7 12 -20 12 -28 -1 -9 -7 -4 -16 12
-12 22 -20 27 -37 21 -22 -6 -22 -6 -2 9 11 8 23 13 27 11 5 -3 8 2 8 12 0 12
-3 14 -13 6 -16 -13 -53 -13 -90 0 -22 8 -31 7 -46 -6 -23 -21 -30 -20 -24 3
3 11 15 22 27 24 17 4 16 5 -6 6 -14 0 -28 -4 -30 -10 -2 -6 -19 -11 -38 -12
-30 -2 -35 1 -38 22 -3 15 -7 20 -11 12 -13 -21 -68 -31 -82 -15 -17 21 -31
17 -24 -6 7 -24 -2 -25 -29 -5 -20 15 -20 15 0 30 17 13 16 13 -13 3 -18 -7
-33 -19 -33 -28 0 -13 1 -13 10 0 6 9 10 10 10 3 0 -7 -10 -17 -21 -24 -20
-10 -21 -9 -15 17 4 16 23 73 43 128 29 78 38 95 46 81 7 -12 5 -20 -4 -26z
m5551 -346 c0 -11 3 -14 8 -8 8 12 76 14 87 3 4 -4 -7 -4 -24 -2 -26 4 -30 3
-24 -13 4 -14 3 -15 -6 -7 -15 14 -63 6 -54 -9 12 -20 10 -47 -3 -47 -7 0 -14
6 -17 13 -5 15 -13 9 -21 -20 -5 -15 -3 -23 4 -23 6 0 8 5 5 10 -3 6 1 10 11
10 13 0 14 -3 4 -15 -7 -8 -21 -15 -32 -15 -10 0 -18 -6 -17 -12 3 -29 -2 -49
-11 -43 -6 4 -8 11 -5 16 4 5 1 9 -4 9 -6 0 -11 -4 -11 -10 0 -5 -7 -7 -17 -3
-13 5 -15 2 -11 -15 8 -27 -2 -28 -25 -2 -21 25 -21 34 -1 54 14 15 14 16 -3
16 -10 0 -14 3 -8 8 22 15 52 68 47 82 -4 12 -2 13 9 3 18 -18 34 -16 19 2
-10 13 -9 15 11 16 13 1 32 1 42 0 9 -1 17 3 17 8 0 6 7 11 15 11 8 0 15 -8
15 -17z m-210 -267 c0 -3 -7 -12 -16 -20 -11 -12 -12 -16 -2 -16 22 0 41 17
34 29 -4 6 -2 11 3 11 6 0 11 -4 11 -10 0 -5 8 -10 18 -11 9 0 4 -5 -13 -11
-39 -14 -42 -17 -25 -28 13 -8 12 -10 -2 -10 -10 0 -18 5 -18 11 0 8 -5 8 -15
-1 -8 -7 -15 -18 -14 -24 1 -6 1 -23 0 -38 -1 -23 -6 -28 -26 -28 -15 0 -23
-5 -20 -12 3 -7 1 -20 -5 -28 -8 -13 -11 -12 -25 5 -16 19 -16 19 -10 -9 6
-26 5 -28 -10 -16 -14 11 -16 11 -13 0 2 -8 -3 -15 -9 -16 -7 -1 -15 -3 -18
-4 -3 -1 -9 -4 -15 -5 -5 -1 -12 -4 -15 -5 -3 -1 -9 -3 -14 -4 -5 0 -13 -4
-17 -8 -4 -5 -13 -8 -21 -8 -9 0 -8 5 4 19 9 11 20 18 25 15 4 -3 8 0 8 5 0 6
-4 11 -10 11 -18 0 -10 16 15 30 13 7 22 16 20 20 -3 5 3 11 12 14 15 6 15 8
3 16 -13 8 -12 10 3 10 9 0 17 5 17 10 0 6 7 10 15 10 8 0 15 5 15 10 0 6 5
10 11 10 5 0 7 -4 4 -10 -3 -6 1 -7 9 -4 9 3 16 13 16 21 0 10 6 12 21 8 16
-5 20 -3 17 6 -7 18 10 51 23 44 5 -4 9 -1 9 4 0 6 5 11 10 11 6 0 10 -2 10
-4z m-7712 -441 c28 -34 29 -84 1 -114 -26 -28 -78 -51 -114 -51 -17 0 -28 -7
-34 -22 -5 -13 -18 -31 -29 -41 -34 -31 -46 -71 -32 -111 6 -19 17 -39 24 -46
12 -9 288 -69 323 -70 7 0 17 26 24 60 10 52 14 60 34 60 41 0 52 -9 49 -43
l-3 -32 7 30 c7 27 11 30 45 29 21 -1 40 -4 43 -7 3 -3 2 -36 -3 -74 l-8 -68
-38 -3 c-21 -2 -45 2 -53 9 -11 9 -14 8 -14 -8 0 -16 5 -19 25 -15 41 7 75 -6
76 -31 2 -21 2 -21 6 2 4 21 8 23 46 17 23 -4 45 -10 48 -14 4 -4 4 -29 0 -57
l-6 -50 -47 -3 -48 -3 -1 43 -2 43 -6 -40 c-6 -38 -8 -40 -39 -39 -18 1 -40 5
-50 9 -9 4 -35 8 -57 9 -38 1 -40 3 -39 31 0 17 2 43 5 59 4 29 3 30 -61 42
-36 7 -98 19 -138 27 l-73 15 -40 -80 c-41 -81 -41 -90 -2 -121 24 -20 103
-172 103 -200 0 -26 -17 -28 -32 -4 -8 12 -25 48 -37 79 -30 74 -58 93 -131
89 -118 -6 -133 -6 -137 6 -7 20 42 44 108 51 l63 7 13 74 c7 41 15 81 18 89
3 8 -8 38 -25 67 -40 70 -40 117 2 179 17 26 37 50 45 53 7 3 13 20 13 42 0
60 19 108 52 136 40 34 91 29 126 -10z m823 -155 c10 -6 26 -25 35 -42 14 -27
15 -39 4 -87 -12 -52 -11 -56 9 -69 16 -11 21 -25 21 -56 0 -57 -25 -139 -50
-161 -20 -18 -20 -18 0 -32 30 -21 25 -42 -22 -85 -37 -34 -41 -41 -32 -65 8
-25 17 -29 79 -38 73 -11 118 -34 136 -67 20 -36 -5 -37 -61 -2 -46 29 -63 34
-113 34 -67 0 -118 -20 -142 -56 -18 -28 -45 -32 -45 -6 0 25 30 51 71 63 60
16 66 24 49 56 -14 25 -21 28 -57 25 -27 -2 -45 2 -57 13 -25 25 -19 44 19 66
45 27 44 39 -3 39 -21 0 -64 7 -95 15 -72 19 -70 19 -62 -5 5 -15 0 -22 -21
-30 -49 -19 -52 -12 -47 117 3 65 9 122 14 127 5 6 17 2 29 -9 16 -15 21 -30
19 -60 -4 -79 -4 -79 146 -99 l40 -5 -27 20 c-61 45 -20 129 63 129 41 0 82
-29 75 -52 -3 -7 -7 -26 -11 -43 -6 -29 -6 -29 13 -12 33 30 46 72 33 108 -6
18 -11 42 -11 55 0 18 -9 26 -49 39 -57 18 -88 49 -97 93 -13 64 81 117 147
82z m-2661 -39 c0 -3 14 -7 32 -7 17 -1 37 -9 43 -17 7 -9 16 -13 20 -9 5 4 6
3 3 -3 -9 -16 10 -55 27 -55 8 0 15 -8 16 -17 0 -10 2 -29 4 -43 2 -14 7 -74
9 -135 3 -60 9 -137 12 -170 3 -33 7 -72 8 -86 2 -14 6 -30 9 -36 4 -6 1 -13
-5 -16 -10 -3 -10 -7 1 -20 7 -10 10 -17 5 -17 -5 0 -10 -24 -11 -54 -1 -46
-7 -59 -35 -89 -18 -19 -42 -39 -53 -45 -23 -11 -94 -10 -112 1 -8 5 -13 4
-13 -3 0 -6 -10 -8 -25 -4 -16 4 -25 2 -25 -6 0 -7 -7 -10 -15 -6 -8 3 -15 2
-15 -3 0 -6 -69 -7 -77 0 -2 1 -6 2 -10 4 -12 3 -44 15 -73 27 -56 23 -78 27
-84 13 -6 -17 -89 -56 -96 -45 -4 6 -24 11 -88 20 -1 0 -7 12 -12 26 -9 22
-13 24 -25 14 -12 -10 -15 -9 -15 4 0 9 -3 16 -6 16 -10 0 -64 -58 -64 -69 0
-6 -6 -8 -14 -5 -8 3 -17 1 -21 -5 -3 -6 -24 -11 -45 -11 -21 0 -42 5 -45 11
-4 6 -13 8 -21 5 -8 -3 -14 -2 -14 2 0 15 -49 9 -52 -7 -3 -13 -18 -16 -88
-17 -77 -2 -138 -7 -165 -15 -5 -2 -30 0 -55 4 -35 6 -54 18 -92 57 -26 27
-48 54 -48 60 0 13 -6 13 -31 0 -10 -6 -19 -18 -19 -26 0 -8 -4 -13 -9 -10 -5
3 -14 -7 -21 -24 -24 -59 -82 -75 -145 -40 -20 11 -42 20 -50 20 -8 0 -15 7
-15 15 0 22 -14 19 -48 -10 -52 -44 -112 -65 -167 -59 -69 7 -91 8 -159 3 -41
-2 -61 0 -64 9 -2 7 -8 12 -14 12 -23 0 -89 104 -81 127 2 6 -1 14 -7 18 -8 5
-8 11 1 21 6 7 8 22 4 31 -4 10 -9 36 -11 58 -2 22 -6 69 -10 105 -3 36 -7
130 -9 210 l-3 144 36 36 c20 19 35 37 34 40 -5 13 98 7 109 -6 6 -8 20 -14
31 -14 11 0 16 -4 12 -11 -3 -6 6 -22 21 -35 15 -12 24 -28 20 -33 -3 -6 7
-16 22 -23 15 -7 31 -16 34 -21 3 -4 10 -7 15 -6 21 5 113 -14 108 -22 -3 -5
1 -9 9 -9 8 0 20 -6 26 -14 16 -19 81 -10 102 14 15 18 89 29 207 33 23 0 42
6 42 11 0 7 3 6 8 -1 4 -7 25 -14 47 -16 45 -5 117 11 109 24 -3 5 2 6 10 3 9
-3 16 -1 16 5 0 6 6 8 14 5 8 -3 23 -1 34 5 15 8 22 8 26 -2 5 -9 7 -9 12 0 4
8 11 9 22 3 48 -27 140 -62 160 -62 13 0 33 8 45 19 12 11 29 21 37 21 64 3
81 6 86 14 3 4 9 6 14 3 5 -3 19 -1 30 5 15 8 20 8 20 -1 0 -8 4 -8 13 -2 15
13 147 14 147 2 0 -5 6 -9 14 -9 7 0 25 -9 40 -21 14 -11 26 -17 26 -14 0 4 7
2 15 -5 8 -6 19 -9 26 -5 6 4 16 1 21 -6 8 -11 9 -10 4 4 -3 10 0 17 8 17 7 0
23 11 35 24 20 22 42 28 123 38 9 1 16 5 16 8 -2 18 3 32 9 27 3 -4 14 11 24
33 10 22 25 43 34 46 8 3 12 10 9 15 -3 5 2 9 11 9 9 0 13 4 10 10 -3 6 1 7 9
4 9 -4 18 0 21 8 6 15 55 14 55 -1z m1814 -76 c34 -32 33 -60 -5 -96 -85 -79
-201 10 -120 92 38 38 87 39 125 4z m-4186 0 c12 -4 22 -11 22 -16 0 -5 16
-25 36 -44 20 -20 33 -39 30 -42 -3 -3 2 -12 12 -19 11 -9 13 -13 4 -14 -8 0
-11 -7 -8 -17 6 -19 20 -176 18 -205 0 -10 2 -18 6 -18 4 0 6 -28 6 -63 -1
-34 2 -83 6 -109 4 -26 3 -49 -1 -50 -5 -2 -5 -19 0 -38 10 -46 -12 -120 -45
-154 -15 -14 -30 -23 -35 -20 -5 3 -9 -3 -9 -13 0 -14 -2 -15 -9 -4 -5 8 -16
11 -25 8 -14 -6 -92 26 -106 43 -3 3 -24 -4 -47 -15 -24 -12 -40 -25 -36 -28
3 -4 -4 -7 -18 -7 -40 0 -103 -12 -116 -22 -8 -7 -13 -7 -13 -1 0 5 -21 10
-46 11 -32 0 -53 7 -68 21 -12 12 -26 21 -30 21 -4 0 -17 11 -30 25 -13 14
-29 25 -35 25 -7 0 -9 5 -6 10 3 6 2 10 -2 10 -5 0 -13 10 -18 22 -6 12 -20
23 -33 25 -18 2 -26 -4 -38 -32 -8 -19 -19 -35 -24 -35 -6 0 -10 -5 -10 -11 0
-7 -10 -20 -22 -31 -13 -11 -23 -25 -23 -31 0 -13 -86 -30 -95 -19 -3 5 -19
14 -35 20 -17 7 -39 26 -50 42 -11 17 -23 30 -27 30 -5 0 -8 7 -8 15 0 8 -9
15 -21 15 -11 0 -17 -5 -14 -10 9 -14 -36 -100 -52 -100 -7 0 -13 -6 -13 -14
0 -15 -48 -28 -52 -14 -2 4 -27 11 -56 15 -40 4 -52 3 -50 -7 6 -24 -105 -30
-148 -6 -51 26 -101 80 -119 126 -17 44 -27 172 -12 163 12 -7 8 37 -5 51 -20
22 -71 -11 -65 -42 2 -12 0 -25 -5 -28 -4 -3 -6 -10 -2 -15 11 -18 3 -153 -9
-165 -4 -4 -7 -14 -7 -22 0 -24 -40 -72 -55 -66 -7 3 -23 1 -34 -5 -13 -8 -22
-8 -26 -1 -4 6 -11 8 -16 5 -5 -4 -9 -1 -9 4 0 12 -42 14 -77 5 -13 -4 -21 -9
-18 -13 2 -4 -18 -7 -46 -7 -27 0 -49 3 -49 7 0 4 -8 6 -17 5 -17 -3 -32 8
-83 57 -36 35 -63 116 -73 222 -6 57 -25 116 -41 127 -6 4 -7 8 -3 8 5 0 5 6
0 13 -11 17 -11 57 0 50 5 -3 6 4 3 15 -13 38 46 153 81 158 9 2 20 9 24 16 6
8 12 9 17 3 10 -15 64 -16 55 -1 -10 16 36 -22 81 -68 22 -22 46 -41 54 -42
13 -2 73 27 100 49 9 7 16 7 20 0 14 -21 56 -22 100 -3 49 22 73 25 87 11 6
-5 31 -12 56 -14 37 -4 56 0 88 18 23 13 49 21 61 18 11 -3 20 -1 20 3 0 5 27
9 59 9 33 0 59 -4 58 -10 -2 -9 9 -12 63 -17 14 -2 28 -7 32 -13 4 -5 15 0 25
12 19 22 69 33 91 20 6 -5 17 -5 22 -2 6 3 10 1 10 -5 0 -15 25 -40 41 -40 7
0 10 -2 7 -5 -3 -3 8 -19 24 -35 32 -33 39 -31 69 25 10 18 38 41 70 57 46 23
55 25 69 13 8 -7 26 -15 40 -17 14 -2 31 -7 38 -11 6 -5 12 -4 12 1 0 9 35 23
65 27 6 0 9 6 8 11 -1 6 10 11 25 11 36 1 56 6 64 18 5 6 8 5 8 -3 0 -9 10
-12 28 -11 15 2 32 0 39 -4 6 -4 14 -3 18 3 6 10 18 3 54 -33 18 -17 19 -17
24 4 3 11 10 18 16 15 6 -4 8 2 6 16 -5 26 14 98 27 98 4 0 8 5 8 10 0 14 39
54 65 68 20 11 30 10 73 -3z m-3069 -147 c14 -11 26 -23 26 -26 2 -21 30 -89
43 -101 19 -20 44 -23 55 -8 7 9 10 9 13 0 4 -8 16 -10 33 -7 16 4 32 1 35 -5
4 -6 15 -11 26 -11 10 0 20 -7 24 -15 3 -8 13 -15 21 -15 9 0 13 -4 10 -10 -3
-5 1 -10 9 -10 8 0 20 -9 26 -20 10 -20 60 -29 60 -12 0 15 37 52 44 45 3 -3
6 -1 6 6 0 15 20 35 40 40 47 12 92 18 120 14 19 -2 29 1 25 7 -10 17 108 -31
128 -51 10 -11 21 -19 26 -19 4 0 14 -12 22 -27 8 -16 19 -32 25 -38 23 -20
37 -209 17 -224 -4 -3 -9 -19 -11 -36 -2 -16 -7 -34 -11 -40 -9 -11 -8 -28 4
-66 7 -20 6 -22 -7 -11 -13 10 -15 9 -11 -13 4 -19 0 -27 -21 -36 -14 -7 -26
-16 -26 -21 0 -4 -9 -8 -19 -8 -11 0 -23 -5 -26 -10 -4 -6 -11 -8 -16 -5 -5 4
-14 3 -21 -1 -13 -8 -81 -9 -94 -1 -5 3 -25 8 -45 12 -20 4 -53 22 -74 40 -21
19 -42 32 -46 29 -5 -3 -9 0 -9 5 0 23 -16 9 -42 -34 -27 -45 -79 -78 -86 -56
-2 6 -12 11 -22 11 -10 0 -28 13 -40 30 -24 33 -52 153 -46 199 2 17 -1 28 -6
25 -5 -3 -6 5 -3 18 6 23 -24 68 -45 68 -6 0 -13 0 -17 0 -12 1 -25 -126 -15
-144 11 -19 4 -84 -13 -140 -16 -52 -20 -56 -54 -61 -20 -4 -44 -8 -54 -10 -9
-2 -21 3 -25 12 -10 17 -54 9 -73 -13 -6 -8 -17 -14 -23 -14 -6 0 -4 5 4 11
12 9 11 9 -5 4 -11 -4 -40 -11 -65 -15 -53 -10 -70 -1 -136 68 -34 35 -44 53
-44 78 0 18 -5 36 -11 39 -6 4 -8 13 -5 21 3 7 1 16 -3 18 -5 3 -6 17 -4 30 7
33 -34 165 -52 172 -7 3 -11 12 -8 20 3 8 0 21 -7 29 -10 12 -10 15 0 15 7 0
10 7 6 16 -4 9 -1 23 5 30 6 8 8 14 4 14 -5 0 -1 8 7 18 9 9 19 27 22 40 4 12
12 22 17 22 5 0 9 5 9 11 0 12 32 47 36 39 2 -3 12 3 24 12 11 10 20 13 20 8
0 -6 9 -10 20 -10 11 0 23 -7 26 -15 4 -8 12 -15 18 -15 19 0 86 -66 86 -84 0
-13 3 -14 18 -5 14 9 19 25 21 63 1 28 6 53 11 54 6 2 10 11 10 20 1 21 23 52
38 52 5 0 13 7 16 16 8 20 48 12 85 -18z m7257 -568 c-1 -89 -4 -120 -13 -120
-7 0 -13 5 -13 10 0 6 -15 10 -33 10 -37 0 -69 27 -87 74 -8 23 -7 34 6 53 13
21 22 24 60 21 l44 -3 0 37 c0 30 4 38 19 38 17 0 18 -9 17 -120z m167 3 c23
-22 22 -60 -4 -73 -12 -7 -37 -9 -60 -5 -31 5 -39 4 -39 -9 0 -19 15 -28 59
-35 19 -4 36 -12 39 -19 6 -19 -26 -26 -69 -13 -61 18 -88 89 -53 139 30 43
87 50 127 15z m247 -30 c14 -4 44 -5 67 -4 63 4 83 -21 83 -104 0 -60 -2 -65
-21 -65 -20 0 -21 4 -15 53 7 66 -7 90 -49 85 -29 -3 -30 -4 -33 -66 -3 -53
-6 -63 -20 -60 -14 3 -16 13 -14 65 3 54 1 63 -17 73 -12 6 -31 8 -41 5 -17
-5 -20 -16 -20 -71 0 -57 -2 -64 -20 -64 -23 0 -24 11 -14 108 l7 62 41 -6
c23 -3 52 -8 66 -11z m511 -23 c9 -14 20 -53 23 -87 5 -58 4 -63 -14 -63 -17
0 -20 7 -21 43 -2 68 -12 92 -40 95 -36 4 -47 -15 -51 -83 -2 -45 -7 -60 -18
-60 -12 0 -15 16 -15 87 l-1 87 36 4 c63 7 83 3 101 -23z m-189 -3 c4 -7 8
-35 8 -64 0 -28 2 -58 6 -66 4 -11 -8 -16 -51 -21 -69 -8 -95 4 -95 44 0 35
31 60 77 60 37 0 43 14 13 30 -14 8 -26 8 -41 0 -24 -13 -34 -8 -26 14 10 27
93 29 109 3z m418 -2 c38 -34 64 -141 29 -120 -5 4 -24 1 -43 -6 -29 -11 -38
-10 -60 5 -45 29 -27 106 25 106 12 0 17 4 14 11 -4 6 -21 9 -38 7 -19 -2 -32
2 -35 11 -7 20 83 9 108 -14z"/>
<path d="M8837 8979 c-21 -5 -50 -15 -65 -23 -35 -18 -118 -37 -193 -45 -4 -1
-9 -12 -12 -26 -3 -21 3 -31 32 -53 20 -15 38 -31 40 -36 2 -5 19 -24 37 -42
18 -18 35 -42 39 -54 3 -11 10 -18 15 -15 5 3 12 0 16 -6 4 -8 9 -7 15 2 7 12
9 12 9 0 0 -7 6 -11 15 -7 9 3 15 0 15 -9 0 -8 16 -18 38 -24 87 -23 95 -24
88 -12 -4 6 -11 9 -16 6 -5 -3 -11 -1 -15 5 -4 6 6 10 24 10 31 0 42 14 19 24
-7 3 0 2 16 -1 24 -5 28 -3 23 11 -4 9 -3 16 1 16 4 0 20 18 35 39 25 33 33
38 72 39 78 1 118 66 72 118 -11 13 -27 22 -34 20 -7 -3 -17 4 -23 14 -6 11
-20 20 -30 20 -11 0 -20 4 -20 9 0 7 -26 12 -145 25 -16 2 -47 -1 -68 -5z"/>
<path d="M9720 8899 c-29 -12 -40 -26 -40 -56 0 -33 19 -38 30 -8 22 57 66 38
89 -39 12 -42 31 -63 31 -34 0 14 11 4 14 -14 14 -65 36 -61 36 8 0 114 -72
178 -160 143z"/>
<path d="M8640 8407 c-5 -5 -98 -16 -142 -17 -41 0 -36 -31 10 -77 49 -48 96
-67 114 -46 8 11 24 14 50 10 21 -3 38 -1 38 4 0 5 6 9 13 9 19 1 57 36 57 54
0 12 -7 16 -27 13 -30 -4 -81 17 -98 40 -6 8 -13 12 -15 10z"/>
<path d="M8344 6951 c-48 -29 -78 -86 -79 -147 0 -29 3 -55 7 -59 8 -8 128 56
146 77 6 7 14 41 18 76 5 49 4 62 -7 62 -8 0 -23 3 -34 5 -11 3 -34 -3 -51
-14z"/>
<path d="M8484 6871 c6 -66 10 -77 47 -122 23 -26 52 -55 65 -64 23 -15 25
-14 35 12 6 15 8 52 6 81 -8 78 -60 140 -131 158 l-29 7 7 -72z"/>
<path d="M8369 6728 c-40 -11 -75 -21 -77 -23 -2 -2 1 -12 7 -24 20 -37 77
-72 139 -83 54 -10 64 -9 106 11 25 13 46 27 46 32 0 5 -13 15 -29 23 -15 8
-48 30 -73 49 l-44 34 -75 -19z"/>
<path d="M9799 4657 c-60 -22 -96 -54 -123 -109 -14 -28 -24 -53 -22 -55 2 -3
24 11 49 30 117 89 265 95 297 12 22 -59 15 -149 -20 -229 -22 -53 -13 -59 25
-15 61 73 83 171 54 246 -34 91 -169 153 -260 120z"/>
<path d="M8369 4543 c-18 -32 -54 -94 -81 -139 -26 -45 -48 -86 -48 -93 0 -23
30 -10 46 22 28 55 28 55 96 42 l63 -11 11 -49 c7 -35 15 -51 28 -53 14 -3 17
0 13 13 -4 9 -16 80 -28 158 -28 190 -44 208 -100 110z"/>
<path d="M8735 4475 c-3 -30 -8 -55 -10 -55 -2 0 -15 11 -29 25 -61 61 -146
-4 -146 -110 0 -76 61 -132 117 -106 21 10 27 9 38 -6 18 -24 19 -20 44 149
25 163 25 158 7 158 -9 0 -16 -18 -21 -55z m-42 -52 c28 -32 27 -123 -3 -153
-27 -27 -75 -26 -94 2 -39 55 -3 168 52 168 16 0 36 -8 45 -17z"/>
<path d="M9725 4485 c-65 -39 -125 -92 -125 -110 0 -31 110 -115 150 -115 21
0 80 143 83 200 2 52 1 55 -23 58 -15 2 -49 -12 -85 -33z"/>
<path d="M8837 4402 c-16 -18 -23 -42 -12 -42 3 0 14 9 25 20 11 11 31 20 45
20 27 0 65 -31 65 -54 0 -25 -26 -37 -66 -31 -78 13 -129 -35 -102 -93 17 -35
59 -50 100 -34 28 10 34 9 50 -8 10 -11 22 -20 27 -20 15 0 21 13 11 25 -14
17 -15 73 -1 128 8 34 8 53 1 68 -22 40 -114 53 -143 21z"/>
<path d="M9461 4291 c-29 -29 -16 -49 13 -22 26 25 63 27 94 5 48 -33 17 -80
-46 -69 -21 3 -50 2 -64 -4 -54 -20 -61 -85 -13 -117 21 -14 32 -15 68 -5 34
9 44 8 53 -4 12 -16 44 -20 44 -6 0 5 -5 11 -11 13 -8 3 -8 20 0 63 15 82 14
130 -4 145 -9 7 -37 15 -64 18 -40 4 -52 1 -70 -17z"/>
<path d="M800 8759 c0 -7 -11 -10 -30 -7 -16 3 -30 1 -30 -4 0 -4 -6 -8 -14
-8 -9 0 -12 -7 -9 -20 3 -11 0 -20 -6 -20 -6 0 -11 -5 -11 -10 0 -24 -53 -60
-88 -60 l-34 0 6 -67 c9 -89 15 -135 21 -150 2 -7 0 -13 -6 -13 -6 0 -8 -9 -4
-20 3 -11 2 -20 -2 -20 -12 0 -8 -68 6 -103 6 -15 18 -30 27 -34 11 -4 14 -14
10 -32 -3 -14 -3 -20 0 -13 8 18 34 15 34 -5 0 -15 -2 -16 -10 -3 -8 13 -10
12 -10 -4 0 -13 5 -16 17 -12 9 4 19 2 23 -3 3 -6 22 -13 42 -15 44 -6 73 20
66 58 -3 14 -1 23 3 20 10 -6 32 73 25 92 -3 7 0 16 6 20 7 4 6 9 -3 14 -7 5
-14 16 -15 26 -2 9 -8 20 -14 24 -22 13 -13 109 13 138 9 10 17 24 17 32 0 7
10 21 21 31 12 11 19 25 16 34 -4 8 -1 14 6 12 30 -6 -8 96 -44 117 -19 11
-29 13 -29 5z"/>
<path d="M0 8375 c0 -164 9 -217 25 -145 5 21 14 32 32 36 25 7 25 8 8 20 -17
13 -17 14 -2 15 9 1 22 3 27 4 6 1 13 3 18 4 4 1 -4 7 -18 13 l-25 11 28 10
c34 13 37 47 5 47 -17 0 -19 3 -9 9 7 5 21 7 30 4 12 -3 17 2 17 17 0 15 -5
20 -18 17 -9 -3 -23 2 -29 9 -7 8 -18 13 -24 10 -8 -3 -15 7 -19 25 -3 18 -12
29 -22 29 -13 0 -14 3 -5 13 11 14 6 27 -11 27 -4 0 -8 -79 -8 -175z"/>
<path d="M0 3472 c0 -69 15 -103 36 -83 11 12 76 17 90 8 17 -10 41 15 48 48
5 23 2 36 -13 50 -38 38 -46 41 -104 44 l-57 2 0 -69z"/>
<path d="M2 3023 c-2 -41 2 -63 9 -63 6 0 9 -6 6 -14 -11 -29 66 -34 143 -9
57 18 76 45 65 94 -6 25 -13 30 -65 46 -8 2 -47 5 -85 6 l-71 3 -2 -63z"/>
<path d="M17445 1081 c-29 -5 -39 -10 -35 -21 3 -8 5 -42 5 -75 0 -72 -26
-111 -69 -103 -15 3 -27 0 -30 -8 -7 -19 -33 -17 -54 4 -24 24 -122 24 -147
-2 -10 -10 -14 -21 -9 -24 5 -4 15 -20 23 -37 12 -28 14 -28 21 -10 14 36 46
58 68 46 10 -6 35 -8 54 -5 32 6 36 4 40 -20 3 -14 1 -26 -5 -26 -5 0 -7 -12
-4 -27 8 -41 -9 -66 -39 -59 -25 7 -60 -8 -80 -33 -10 -12 -13 -11 -23 7 -9
18 -15 19 -43 11 -47 -13 -53 -12 -68 16 l-13 25 -23 -21 c-35 -32 -50 -19
-53 44 -1 30 3 58 9 62 13 8 13 38 -1 52 -9 9 -16 9 -29 0 -27 -16 -44 3 -65
75 -24 82 -34 92 -79 84 -48 -9 -56 -28 -68 -153 l-9 -104 31 -67 c18 -38 34
-91 37 -122 6 -59 68 -206 91 -215 8 -3 64 -1 125 5 242 21 271 21 311 1 l37
-19 11 24 c6 13 20 26 31 30 23 7 67 -14 67 -33 0 -17 20 -16 43 1 20 15 23
76 6 124 -7 22 -8 67 0 154 17 204 23 361 13 393 -9 33 -17 35 -77 26z m-55
-467 c0 -19 8 -28 35 -40 29 -12 35 -19 35 -45 0 -25 -6 -32 -33 -44 -19 -8
-39 -20 -46 -28 -18 -23 -46 -14 -49 15 -2 14 -11 33 -20 41 -15 13 -22 14
-42 4 -18 -9 -35 -10 -63 -3 -27 8 -40 7 -45 -1 -4 -6 -19 -9 -35 -6 -24 5
-27 10 -27 45 0 46 -13 43 -36 -10 -14 -33 -17 -35 -24 -17 -4 11 -6 23 -3 27
2 4 0 16 -5 25 -19 37 24 84 51 56 4 -3 39 -7 79 -7 68 -1 72 -2 78 -26 l6
-25 15 30 c9 19 22 29 34 28 10 -1 28 5 38 12 27 19 57 2 57 -31z"/>
<path d="M18656 1083 c-3 -4 -25 -6 -47 -4 -23 1 -48 -4 -56 -10 -9 -8 -17 -9
-21 -3 -10 13 -102 18 -102 5 0 -6 -10 -10 -22 -8 -26 2 -23 29 -33 -347 l-6
-279 258 8 c142 4 284 7 316 7 l57 0 0 99 0 100 -76 -3 c-80 -3 -85 -6 -88
-53 -1 -22 -6 -25 -41 -26 -167 -6 -195 -2 -195 26 0 7 -6 20 -12 27 -7 8 -18
22 -23 32 -14 25 -28 24 -40 -3 -13 -28 -52 -27 -76 2 -23 27 -25 94 -3 125
20 29 94 32 94 4 0 -10 5 -23 11 -29 8 -8 8 -13 0 -17 -13 -9 -15 -36 -2 -36
5 0 11 10 13 23 2 14 11 23 24 25 32 5 52 32 60 79 5 36 3 45 -19 66 -13 14
-27 37 -29 51 -5 23 -1 27 33 38 38 11 39 12 39 60 0 49 -1 53 -14 41z"/>
<path d="M18987 1083 c-4 -3 -7 -16 -7 -27 -1 -21 -1 -21 -13 1 -11 19 -14 20
-31 8 -10 -8 -24 -11 -29 -8 -6 4 -2 10 9 14 17 7 17 8 -3 8 -14 1 -23 -5 -23
-14 0 -8 -4 -15 -10 -15 -5 0 -10 5 -10 11 0 7 -10 9 -25 5 -17 -4 -25 -2 -25
6 0 9 -3 8 -10 -2 -6 -10 -10 -11 -10 -2 0 6 -12 12 -26 12 -24 0 -26 -3 -20
-31 3 -17 6 -35 6 -39 0 -4 18 -10 40 -14 53 -8 65 -44 28 -84 -24 -27 -27
-47 -14 -89 6 -18 13 -22 44 -19 51 4 61 -1 68 -40 7 -36 18 -44 28 -19 3 8
15 15 26 15 21 0 21 4 19 165 -1 91 -3 165 -4 165 -1 0 -5 -3 -8 -7z"/>
<path d="M16489 967 c-1 -7 -1 -15 0 -20 1 -4 -16 -4 -38 -1 -25 4 -41 2 -46
-5 -4 -7 -6 -53 -4 -104 1 -51 3 -175 3 -277 1 -102 4 -190 8 -196 10 -15 140
-6 157 10 17 17 42 134 30 142 -5 3 -9 -1 -9 -9 0 -23 -30 -29 -56 -12 -40 26
-32 67 20 110 52 42 60 59 44 88 -7 12 -11 32 -9 44 1 11 -2 24 -7 27 -17 10
-35 -24 -37 -67 -3 -77 -5 -83 -34 -100 -97 -57 -107 27 -25 208 17 39 20 53
11 64 -9 12 -9 13 1 7 14 -8 30 22 16 33 -17 12 -14 49 4 53 14 3 12 5 -5 10
-14 4 -23 2 -24 -5z"/>
<path d="M13210 875 c0 -15 -7 -39 -15 -56 -9 -17 -18 -69 -22 -122 -5 -90 -4
-94 30 -162 19 -38 40 -99 47 -135 9 -50 20 -74 47 -103 19 -21 32 -45 29 -52
-12 -33 20 -38 202 -31 351 13 447 19 466 28 18 10 19 21 13 207 -6 203 -21
350 -41 411 -8 27 -17 36 -37 38 -26 3 -27 2 -27 -56 0 -77 -24 -129 -64 -140
-33 -8 -34 -28 -1 -24 18 2 24 -5 33 -39 6 -23 12 -70 14 -105 1 -35 7 -69 14
-76 17 -17 15 -54 -4 -94 -17 -35 -21 -37 -66 -34 -15 1 -38 -6 -50 -14 -12
-9 -32 -16 -43 -16 -16 0 -17 2 -5 10 11 7 4 10 -27 10 -24 0 -43 -4 -43 -9 0
-22 -46 -16 -67 9 -20 22 -25 23 -44 12 -27 -17 -38 -5 -43 44 -1 6 -7 18 -14
27 -9 11 -10 21 -4 34 9 15 16 80 13 106 -1 4 -16 1 -34 -7 -27 -11 -37 -11
-50 -1 -21 15 -22 92 -2 119 13 17 13 22 -1 37 -8 9 -23 15 -32 12 -37 -9 -88
91 -73 144 11 37 -7 53 -59 53 -36 0 -40 -2 -40 -25z"/>
<path d="M15415 890 c27 -7 25 -8 -17 -9 l-48 -1 2 -44 c2 -34 -3 -50 -25 -75
-31 -37 -32 -48 -11 -76 10 -13 24 -19 42 -17 17 2 39 -6 57 -20 16 -12 39
-21 51 -20 45 6 69 -57 45 -121 -8 -21 -18 -25 -73 -30 -83 -8 -97 -14 -91
-38 7 -25 -13 -49 -41 -48 -11 0 -34 -2 -51 -4 -16 -3 -55 -8 -86 -11 -53 -7
-56 -6 -68 21 -7 15 -17 35 -21 43 -5 10 -24 15 -61 15 -67 0 -85 9 -98 47 -7
18 -15 27 -22 22 -8 -5 -10 -36 -5 -112 4 -58 9 -109 12 -114 5 -8 79 -7 484
11 l145 6 5 45 c13 117 -18 480 -41 480 -4 0 -9 10 -11 23 -2 14 -9 21 -20 19
-9 -1 -19 2 -23 8 -3 5 -18 9 -33 9 l-27 -1 30 -8z"/>
<path d="M14953 853 c-13 -2 -23 -9 -23 -15 0 -6 -11 -8 -24 -6 l-24 5 3 -96
c4 -151 4 -153 18 -148 6 2 12 8 13 13 2 23 21 49 36 50 10 1 29 5 43 8 19 5
31 1 49 -19 35 -37 53 -32 61 17 7 40 5 44 -29 74 -21 18 -33 35 -28 38 15 9
2 55 -14 49 -9 -3 -14 1 -14 12 0 9 -4 14 -9 10 -5 -3 -12 -1 -16 5 -3 5 -9 9
-13 9 -4 -1 -17 -4 -29 -6z"/>
<path d="M11810 815 c-7 -8 -23 -15 -37 -15 -14 0 -21 -4 -18 -10 7 -12 -8
-14 -19 -2 -13 12 -55 9 -61 -6 -3 -7 3 -28 12 -45 9 -18 16 -35 15 -38 0 -4
4 -6 11 -6 34 1 45 -5 49 -28 3 -14 1 -25 -4 -25 -5 0 -6 -9 -3 -20 4 -12 2
-20 -5 -20 -16 0 -30 -47 -21 -72 6 -17 17 -23 44 -24 20 0 45 -8 55 -17 22
-20 89 -36 78 -19 -3 6 -1 14 5 17 7 5 10 55 7 152 -3 164 -11 188 -59 181
-15 -3 -26 -1 -23 4 9 14 -13 9 -26 -7z"/>
<path d="M12840 820 c0 -5 6 -10 13 -10 9 0 9 -2 -1 -8 -9 -6 -13 -42 -13
-128 -1 -65 0 -122 0 -126 1 -5 10 1 22 13 12 12 18 27 14 38 -3 11 0 21 9 24
7 3 27 32 43 64 16 32 37 70 47 85 17 26 17 27 -4 38 -14 8 -26 8 -32 2 -11
-11 -58 -4 -58 9 0 5 -9 9 -20 9 -11 0 -20 -4 -20 -10z"/>
<path d="M11534 759 c-3 -6 -19 -9 -35 -5 -15 3 -31 1 -34 -4 -4 -6 -24 -8
-45 -5 -22 2 -42 0 -45 -5 -4 -6 -11 -8 -16 -5 -5 4 -9 1 -9 -5 0 -7 -7 -9
-16 -6 -12 4 -14 1 -9 -14 4 -11 3 -20 -2 -20 -6 0 -10 -203 -4 -218 0 -1 11
3 23 9 29 16 88 29 88 20 0 -6 62 -33 65 -28 1 1 8 14 17 28 15 24 15 28 0 50
-9 13 -20 27 -26 31 -12 8 -15 58 -3 58 5 0 6 9 2 20 -5 16 -3 19 11 13 13 -5
15 -2 10 14 -5 15 -2 19 15 19 17 -1 22 6 24 32 3 34 0 39 -11 21z"/>
<path d="M10337 683 c5 -69 -16 -117 -64 -149 -24 -16 -29 -24 -20 -33 6 -6
16 -11 22 -11 18 0 33 -41 30 -80 -2 -19 1 -43 7 -54 7 -12 7 -21 0 -25 -6 -4
-3 -20 8 -44 15 -30 17 -44 9 -65 -16 -41 -50 -72 -79 -72 -14 0 -30 -4 -36
-10 -11 -11 -36 -13 -102 -8 -23 2 -42 0 -42 -4 0 -11 -44 -5 -58 9 -7 7 -24
13 -38 13 -14 0 -27 7 -31 18 -3 9 -17 31 -30 49 -17 24 -20 34 -11 40 22 14
35 47 28 73 -5 21 -13 26 -53 30 -55 7 -57 8 -60 49 -1 17 -6 31 -11 31 -5 0
-2 8 7 18 26 29 21 45 -23 72 -45 28 -80 88 -80 138 0 18 -3 31 -7 30 -5 0
-16 2 -26 7 -10 4 -22 4 -26 -1 -19 -20 -41 -114 -44 -187 -4 -73 -2 -83 30
-147 20 -40 38 -95 43 -132 5 -34 14 -64 20 -66 5 -2 10 -11 10 -20 0 -10 9
-23 19 -29 11 -7 22 -26 26 -43 9 -40 30 -44 168 -36 62 3 171 8 242 11 205 9
231 13 242 38 11 24 9 336 -2 442 -10 88 -34 188 -48 197 -22 14 -25 8 -20
-49z"/>
<path d="M6268 615 c-2 -2 -58 -5 -125 -6 -66 0 -141 -4 -167 -6 l-46 -6 0
-42 c0 -23 -7 -58 -15 -78 -8 -19 -16 -50 -19 -68 -2 -19 -8 -56 -11 -84 -6
-39 -2 -63 15 -110 27 -72 38 -185 18 -185 -8 -1 -5 -6 6 -15 16 -12 55 -15
195 -13 97 0 161 3 144 5 -18 2 -33 9 -33 14 0 6 -12 21 -26 34 -15 14 -23 25
-17 25 5 0 19 9 31 20 12 11 25 20 29 20 13 0 9 34 -7 50 -10 11 -17 13 -22 6
-5 -7 -8 -3 -8 8 0 15 -5 17 -30 13 -27 -6 -32 -2 -56 40 l-27 46 26 19 c32
23 35 48 7 48 -12 0 -41 20 -67 44 -53 51 -58 80 -20 129 23 30 32 34 109 46
45 7 90 15 98 18 8 3 51 7 94 9 57 3 82 1 89 -8 7 -11 10 -11 14 0 4 10 8 10
19 1 10 -8 14 -8 14 0 0 6 9 11 19 11 11 0 23 5 26 10 6 10 -248 14 -257 5z"/>
<path d="M6649 593 c-1 -9 -7 -56 -12 -93 -5 -40 -31 -90 -46 -90 -10 0 -11
-3 -2 -14 9 -11 5 -16 -19 -26 -17 -7 -41 -14 -53 -15 -36 -4 -37 -4 -37 -16
0 -7 10 -9 24 -7 24 5 52 -24 41 -42 -3 -4 0 -10 7 -12 15 -5 2 -58 -15 -58
-7 0 -30 -9 -52 -20 -46 -24 -33 -27 20 -4 33 14 39 14 61 -1 29 -19 31 -33 4
-37 -26 -4 -27 -22 -1 -26 11 -2 24 -16 30 -34 10 -28 14 -30 42 -24 64 13 66
17 75 267 6 172 6 178 -17 218 -20 36 -47 54 -50 34z"/>
<path d="M16675 573 c-8 -8 -15 -22 -15 -31 0 -9 -7 -47 -16 -84 -23 -94 -19
-100 63 -96 63 3 68 5 71 27 2 13 -9 61 -24 106 -29 87 -50 108 -79 78z"/>
<path d="M5600 572 c0 -6 -10 -12 -21 -15 -14 -4 -20 -11 -16 -21 3 -8 2 -18
-2 -21 -5 -2 -9 -48 -10 -100 -1 -53 -4 -102 -8 -110 -4 -11 -1 -13 11 -9 8 3
18 14 21 25 3 10 18 32 33 49 15 17 37 49 49 72 21 39 21 43 6 60 -9 10 -12
18 -8 18 5 0 4 5 -3 12 -8 8 -15 8 -27 -2 -16 -13 -21 -1 -6 16 6 5 4 14 -5
22 -8 7 -14 9 -14 4z"/>
<path d="M7770 559 c0 -11 -5 -17 -10 -14 -6 4 -7 12 -4 18 5 8 3 8 -7 0 -16
-15 -33 -17 -24 -3 3 6 2 10 -3 10 -14 0 -21 -34 -28 -142 -7 -99 1 -123 32
-98 9 8 29 10 57 6 79 -14 82 -13 85 16 2 15 -5 39 -15 54 -10 16 -16 36 -15
46 2 10 -1 18 -7 18 -18 0 20 68 40 73 11 3 19 13 19 22 0 15 -2 15 -15 1 -10
-10 -26 -13 -49 -9 -27 4 -35 2 -40 -13 -3 -11 -4 -7 -2 9 2 15 -1 27 -5 27
-5 0 -9 -9 -9 -21z"/>
<path d="M8258 569 c-4 -12 -40 -14 -81 -3 l-29 7 17 -33 c15 -30 15 -32 1
-27 -9 4 -16 2 -16 -4 0 -6 9 -13 20 -16 20 -5 28 -23 10 -23 -5 0 -10 -5 -10
-12 0 -6 -10 -22 -22 -35 -12 -13 -23 -31 -24 -40 -3 -21 21 -44 39 -37 8 3
38 -4 66 -17 69 -29 81 -19 76 64 -5 85 -14 129 -29 147 -7 8 -11 21 -9 28 3
6 2 12 0 12 -3 0 -7 -5 -9 -11z"/>
<path d="M4195 513 c-126 -7 -240 -16 -252 -18 -29 -7 -33 -23 -36 -189 -3
-124 -2 -141 15 -158 10 -10 18 -13 18 -7 0 14 77 4 97 -13 9 -7 13 -7 13 1 0
8 8 10 20 6 28 -9 36 17 19 68 -20 66 -10 127 22 127 11 0 49 37 49 48 0 11
80 9 81 -3 0 -5 4 -1 9 10 5 11 9 14 9 8 1 -7 7 -13 15 -13 22 0 87 -66 89
-89 1 -12 5 -21 9 -21 13 0 9 -20 -7 -36 -22 -22 -19 -55 5 -61 11 -3 20 -10
20 -15 0 -5 4 -7 9 -3 5 3 12 1 16 -5 3 -5 19 -10 35 -10 16 0 32 -4 35 -10 9
-14 42 -12 48 3 5 14 -2 366 -8 385 -5 14 -20 14 -330 -5z"/>
<path d="M2739 446 c-2 -2 -132 -9 -289 -16 -157 -7 -298 -15 -315 -19 -27 -7
-30 -11 -33 -52 -3 -50 -18 -95 -40 -122 -8 -9 -13 -20 -10 -23 3 -3 2 -21 -3
-40 -5 -18 -13 -50 -18 -69 -6 -26 -5 -44 7 -70 l16 -35 166 1 c98 1 153 4
135 9 -18 5 -22 8 -11 9 16 1 14 5 -13 31 -17 17 -31 33 -31 36 0 9 31 33 57
44 27 11 20 50 -9 50 -11 0 -16 -5 -13 -11 4 -6 0 -9 -11 -7 -22 4 -85 69 -78
80 3 5 -1 8 -10 8 -11 0 -14 9 -11 36 2 19 5 37 7 38 59 39 95 48 191 46 21 0
43 3 49 6 14 9 129 5 143 -5 8 -5 100 -6 100 -1 0 1 10 3 23 6 14 2 22 -1 22
-9 0 -9 10 -12 30 -9 31 4 30 6 33 -50 2 -34 -16 -74 -36 -83 -14 -7 -21 -18
-20 -31 2 -19 -5 -23 -50 -29 -29 -5 -59 -7 -67 -6 -11 1 -11 -1 2 -9 10 -6
24 -10 30 -9 7 2 27 -6 45 -16 28 -17 30 -23 26 -55 -3 -19 -10 -39 -14 -44
-20 -22 -5 -26 86 -26 92 0 95 1 94 23 0 12 0 90 0 172 1 152 -4 229 -14 246
-6 9 -157 13 -166 5z"/>
<path d="M0 211 l0 -211 361 0 c322 0 360 2 355 16 -3 8 -2 12 4 9 14 -9 12
19 -2 33 -10 10 -10 15 2 22 13 8 12 10 -3 10 -10 0 -15 5 -12 10 4 6 1 17 -5
25 -9 11 -9 15 -1 15 9 0 9 5 1 20 -6 11 -10 26 -8 33 1 6 -2 30 -7 52 -4 22
-7 46 -6 53 6 35 -22 40 -240 46 -118 3 -240 5 -271 6 -45 0 -58 3 -58 15 0 8
-7 15 -15 15 -8 0 -15 5 -15 11 0 5 -5 7 -11 3 -6 -3 -14 -2 -18 3 -3 6 -16
13 -28 17 l-23 7 0 -210z"/>
<path d="M12836 413 c-7 -8 -8 -161 0 -188 4 -17 13 -20 55 -19 102 3 99 2
106 34 3 17 10 33 15 36 16 10 -12 33 -48 40 -19 3 -34 9 -35 13 0 3 -2 20 -2
38 -1 17 -4 33 -7 36 -9 8 -78 16 -84 10z"/>
<path d="M13111 388 c-5 -13 -12 -41 -15 -63 -20 -121 -17 -130 50 -126 71 3
85 14 73 54 -6 17 -19 48 -30 68 -10 20 -19 44 -19 53 0 13 -28 36 -45 36 -3
0 -9 -10 -14 -22z"/>
<path d="M1750 383 c0 -7 -6 -13 -14 -13 -18 0 -37 -57 -51 -155 -2 -11 -4
-20 -5 -20 -3 0 -11 -51 -15 -102 -4 -50 9 -79 24 -55 3 6 19 14 34 17 15 4
26 12 24 19 -2 6 8 19 22 28 19 13 22 18 9 18 -16 0 -16 2 0 33 9 17 20 34 25
35 4 2 7 10 7 18 0 8 5 14 11 14 6 0 8 7 5 17 -4 10 -4 14 0 10 4 -4 13 2 20
12 15 21 11 61 -8 73 -7 4 -9 8 -4 8 5 0 3 6 -3 14 -9 11 -9 15 1 20 7 3 3 3
-10 0 -13 -3 -29 0 -37 6 -12 10 -15 10 -15 -1 0 -11 -2 -11 -10 1 -6 10 -10
11 -10 3z"/>
<path d="M11875 319 c-11 -4 -39 -8 -62 -8 -41 -1 -93 -18 -93 -31 0 -3 5 -11
12 -18 9 -9 8 -12 -4 -12 -9 0 -18 -4 -20 -10 -1 -5 -26 -11 -53 -14 -28 -2
-67 -7 -88 -11 -40 -8 -91 10 -81 27 14 22 -27 45 -83 47 -32 1 -63 7 -70 13
-20 17 -27 3 -30 -65 -6 -111 -10 -107 115 -101 59 3 170 10 247 16 77 5 156
10 175 9 19 -1 41 3 48 7 13 9 25 149 13 156 -3 2 -15 0 -26 -5z"/>
<path d="M18555 230 c-65 -13 -324 -19 -356 -8 -19 7 -39 6 -61 -1 -27 -8
-215 -14 -388 -11 -30 1 -270 -16 -277 -19 -2 -1 -3 -10 -3 -20 0 -11 -7 -26
-15 -35 -8 -8 -13 -21 -10 -28 7 -17 -21 -56 -31 -45 -5 4 -4 11 1 15 6 4 11
15 11 25 2 13 -5 17 -25 15 -17 -2 -25 1 -23 10 1 7 -5 15 -13 18 -8 4 -15 14
-15 24 0 30 -17 33 -116 20 -76 -10 -94 -16 -90 -27 4 -8 6 -18 6 -21 0 -4 5
0 11 8 9 15 5 -37 -8 -82 -2 -10 0 -18 6 -18 6 0 11 7 11 15 0 9 6 12 15 9 10
-4 13 -2 10 8 -4 9 4 19 20 26 37 17 41 15 14 -7 -14 -11 -20 -23 -15 -28 5
-4 11 -2 13 5 7 19 19 14 19 -8 0 -11 -4 -20 -8 -20 -4 0 -8 -4 -8 -10 0 -5 7
-10 15 -10 7 0 19 -8 25 -18 9 -14 10 -12 5 11 -3 15 -1 27 4 27 5 0 11 -10
13 -22 3 -21 9 -23 72 -26 47 -2 72 1 77 10 6 10 12 10 31 0 31 -17 111 -11
120 8 6 13 7 13 7 -1 1 -14 19 -16 128 -17 90 -1 130 2 136 11 7 9 10 9 14 0
7 -20 51 -16 56 5 4 15 5 15 6 1 1 -14 15 -17 98 -17 65 -1 100 3 105 11 6 9
8 9 8 0 0 -16 405 -19 415 -3 3 6 12 10 18 10 7 0 6 -4 -3 -10 -10 -7 15 -10
80 -9 62 0 88 3 75 9 -16 7 -17 9 -3 9 9 1 19 -3 22 -8 3 -4 60 -9 126 -10
l120 -1 0 121 0 121 -82 -6 c-121 -8 -206 -9 -268 -3 -30 3 -73 2 -95 -3z"/>
<path d="M9278 153 c-5 -95 -1 -110 30 -116 20 -4 76 7 90 19 2 1 6 16 8 33 5
28 2 32 -35 47 -31 12 -43 24 -51 50 -19 58 -38 43 -42 -33z"/>
<path d="M16935 170 c-11 -5 -32 -9 -47 -9 -15 -1 -32 -9 -37 -18 -6 -10 -11
-12 -11 -5 0 14 -40 17 -40 2 0 -7 -6 -7 -19 0 -29 15 -54 13 -48 -4 4 -11 -1
-14 -19 -12 -13 2 -27 6 -31 9 -10 10 -55 8 -49 -2 3 -5 15 -7 26 -4 11 3 20
1 20 -5 0 -13 49 -22 56 -11 3 5 18 9 34 9 16 0 32 5 35 10 4 6 11 8 16 4 5
-3 6 -10 3 -16 -4 -7 -2 -8 5 -4 6 4 14 0 17 -8 3 -9 13 -16 21 -16 8 0 12 -4
8 -9 -3 -5 -1 -12 5 -16 5 -3 10 0 10 8 0 8 7 20 15 27 12 10 15 7 21 -15 4
-18 2 -30 -6 -35 -10 -6 -8 -9 6 -13 16 -4 15 -5 -4 -6 -19 -1 -21 -3 -10 -15
8 -8 38 -14 80 -15 l67 -2 -5 28 c-2 15 -7 34 -9 41 -3 8 0 10 7 6 7 -5 9 -2
5 8 -5 14 -1 15 26 7 18 -5 33 -9 35 -9 2 0 1 -8 -2 -17 -6 -21 9 -51 21 -40
4 5 1 13 -7 18 -11 8 -12 12 -3 16 8 3 11 14 7 28 -3 12 -1 26 4 29 15 9 3 45
-17 50 -9 2 -34 4 -56 5 -22 0 -56 3 -75 5 -19 3 -44 1 -55 -4z"/>
<path d="M16532 148 c-34 -9 -35 -12 -14 -67 3 -9 1 -12 -6 -7 -7 4 -12 1 -12
-8 0 -9 5 -16 11 -16 5 0 7 -5 4 -10 -14 -23 17 -40 72 -40 l54 0 -5 38 c-11
84 -18 101 -45 110 -15 5 -40 5 -59 0z"/>
<path d="M7676 122 c-3 -5 -8 -35 -12 -66 l-7 -56 322 0 c250 0 321 3 322 13
0 6 2 36 4 65 l3 52 -66 -1 c-92 -1 -118 -10 -114 -36 4 -29 -26 -44 -97 -49
-31 -2 -71 -6 -90 -8 -39 -6 -71 8 -71 29 0 8 -5 15 -11 15 -6 0 -9 7 -5 15 4
10 -1 15 -17 16 -12 1 -42 3 -67 4 -25 2 -55 6 -66 10 -12 4 -24 2 -28 -3z"/>
</g>
</svg>
